
{
    "TweetId": "995830505890373632",
    "created_at": "Mon May 14 00:57:48 +0000 2018",
    "geo": "None",
    "text": "i wish my room was freezing cold but at the moment its like someone turned on a giant heater on in here and left it running all day",
    "userName": "lexxieeraeee"
},
{
    "TweetId": "995830516686446592",
    "created_at": "Mon May 14 00:57:51 +0000 2018",
    "geo": "None",
    "text": "can never get to sleep if my beds warm freezing cold sheets allllll the way",
    "userName": "estelle maskame"
},


{
    "TweetId": "995830683204440064",
    "created_at": "Mon May 14 00:58:31 +0000 2018",
    "geo": "None",
    "text": "My legs are freezing",
    "userName": "Rebel"
},
{
    "TweetId": "995830686782279680",
    "created_at": "Mon May 14 00:58:32 +0000 2018",
    "geo": "None",
    "text": "Its freezing in Jersey and I want to go home",
    "userName": "Kaiyah"
},
{
    "TweetId": "995830862875770882",
    "created_at": "Mon May 14 00:59:14 +0000 2018",
    "geo": "None",
    "text": "What is the best preservative agent for RNA in bird blood when instant freezing is not available?",
    "userName": "Tidepool Ann of the Molas"
},
{
    "TweetId": "995831115335241728",
    "created_at": "Mon May 14 01:00:14 +0000 2018",
    "geo": "None",
    "text": "Hot Tub temperature approaching freezing! Current temperature is -127.0C.",
    "userName": "Hot Tub Hero"
},
{
    "TweetId": "995831122641735686",
    "created_at": "Mon May 14 01:00:15 +0000 2018",
    "geo": "None",
    "text": "freezing, tired and all I wanna do is sleep",
    "userName": "Jade Stewart"
},
{
    "TweetId": "995831153021112321",
    "created_at": "Mon May 14 01:00:23 +0000 2018",
    "geo": "None",
    "text": "Happy Mother's day to all the rink moms out there. From tieing our skates when we were little to sitting in freezing rinks",
    "userName": "Allie Ruggiero"
},
{
    "TweetId": "995831502003949568",
    "created_at": "Mon May 14 01:01:46 +0000 2018",
    "geo": "None",
    "text": "We had a great day at the lake yesterday even thought it was literally freezing.",
    "userName": "mason beavers"
},
{
    "TweetId": "995831722473377797",
    "created_at": "Mon May 14 01:02:38 +0000 2018",
    "geo": "None",
    "text": "Taking a bath means there's a 49% chance the water is going to be freezing cold after 3 minutes, 49% chance your sk\u2026 https://t.co/5HapdPSA4a",
    "userName": "Colleen"
},
{
    "TweetId": "995831812508221440",
    "created_at": "Mon May 14 01:03:00 +0000 2018",
    "geo": "None",
    "text": "@SimonMaloy @PUNISHMYHEAVEN Now that's funny since the government of Peru and the people got sick and tired of the\u2026 https://t.co/7028sK6ANS",
    "userName": "Weismonger Judy"
},
{
    "TweetId": "995831854564593664",
    "created_at": "Mon May 14 01:03:10 +0000 2018",
    "geo": "None",
    "text": "RT @SteveSGoddard: During the winter of 1999-2000, the Front Range of Colorado did not have a single day which didn't get above freezing. S\u2026",
    "userName": "Capital T"
},
{
    "TweetId": "995831904262860801",
    "created_at": "Mon May 14 01:03:22 +0000 2018",
    "geo": "None",
    "text": "I\u2019m freezing bro \ud83d\ude2d\ud83d\ude2d",
    "userName": "BRODIE \ud83c\udf34"
},
{
    "TweetId": "995831934910517248",
    "created_at": "Mon May 14 01:03:29 +0000 2018",
    "geo": "None",
    "text": "@JuanchoS With increasing numbers of hipsters doing homebirth with doula &amp; either freezing the placenta to eat the\u2026 https://t.co/Bsw5E2Ooub",
    "userName": "RATTT!"
},
{
    "TweetId": "995832038082076672",
    "created_at": "Mon May 14 01:03:54 +0000 2018",
    "geo": "None",
    "text": "Travelpics: Freezing River by https://t.co/3RQBkqc9dw #travel #ttot #travelpics #TeamCanon #picsher #SNRTG https://t.co/Daio2SBTm9",
    "userName": "Best Travel Pictures"
},
{
    "TweetId": "995832066607538176",
    "created_at": "Mon May 14 01:04:01 +0000 2018",
    "geo": "None",
    "text": "FREEZING [STOUT ver.] (album on \"STOUT\")",
    "userName": "\u30b9\u30c8\u30ec\u30a4\u30c6\u30ca\u30fc\u66f2bot"
},
{
    "TweetId": "995832150145433600",
    "created_at": "Mon May 14 01:04:20 +0000 2018",
    "geo": "None",
    "text": "@heroofkirrkwell It\u2019s not you it\u2019s fake. Got it. You and your entire family are fakes. People watch these shows for\u2026 https://t.co/q77slnFwtW",
    "userName": "Daisy Daniels"
},
{
    "TweetId": "995832270534643712",
    "created_at": "Mon May 14 01:04:49 +0000 2018",
    "geo": "None",
    "text": "RT @KayMar321: I wouldn\u2019t wanna cheer anyone else on in the freezing cold, super hot, or pouring rain. You da bestest babe love you tons\u2764\ufe0f\u2026",
    "userName": "The Don"
},
{
    "TweetId": "995832354022281216",
    "created_at": "Mon May 14 01:05:09 +0000 2018",
    "geo": "None",
    "text": "Regardless of the cost to many innocent people's lives.\n\nSocial Media Platforms can put an end to this type of beha\u2026 https://t.co/O75g19WOAl",
    "userName": "John .F. Geist"
},
{
    "TweetId": "995832355309998080",
    "created_at": "Mon May 14 01:05:09 +0000 2018",
    "geo": "None",
    "text": "@hqtrivia HQ keeps freezing. Anyone else?",
    "userName": "Jennifer Lynch"
},
{
    "TweetId": "995832540911955968",
    "created_at": "Mon May 14 01:05:54 +0000 2018",
    "geo": "None",
    "text": "Lewin 3 step model : unfreezing , freezing , drives forces , restraining forces",
    "userName": "\ud83c\udf38"
},
{
    "TweetId": "995832572591697921",
    "created_at": "Mon May 14 01:06:01 +0000 2018",
    "geo": "None",
    "text": "Tip number one for non-driving gays: u can\u2019t show cars fear so when I almost hit something or take a turn too fast\u2026 https://t.co/ZXH9TsMUfp",
    "userName": "riley \ud83c\udff9\ud83d\udc9e\ud83c\udf6f"
},
{
    "TweetId": "995832765554675712",
    "created_at": "Mon May 14 01:06:47 +0000 2018",
    "geo": "None",
    "text": "i'm little johnny frostbite moving around, freezin' you up freezing you down",
    "userName": "mighty gays"
},
{
    "TweetId": "995832865073004551",
    "created_at": "Mon May 14 01:07:11 +0000 2018",
    "geo": "None",
    "text": "@street_brice @TenaciousEye @reclaimedhome @JayManning1977 @SBHM_G @Fame11398700 @MichaelAvenatti Right because che\u2026 https://t.co/rLrkiKJIEB",
    "userName": "ALOVE"
},
{
    "TweetId": "995832893518757888",
    "created_at": "Mon May 14 01:07:18 +0000 2018",
    "geo": "None",
    "text": "RT @SarahKnutie: What is the best preservative agent for RNA in bird blood when instant freezing is not available? If other, please list be\u2026",
    "userName": "Dee | Pakatan Kambing"
},
{
    "TweetId": "995835285295398913",
    "created_at": "Mon May 14 01:16:48 +0000 2018",
    "geo": "None",
    "text": "It's snowing in May, therefore global warming isn't real. Sound logic to people afraid to read anything critical of their bias",
    "userName": "Ol' Acid Eye"
},
{
    "TweetId": "995836019957100544",
    "created_at": "Mon May 14 01:19:43 +0000 2018",
    "geo": "None",
    "text": "Snowing in Sapa",
    "userName": "Bird"
},
{
    "TweetId": "995880204353589249",
    "created_at": "Mon May 14 04:15:17 +0000 2018",
    "geo": "None",
    "text": "Have a nice Day!  Thank you for RTs! You are do welcome ---- https://t.co/ympzVbtCAn https://t.co/X9foK1i2oG",
    "userName": "Natalini"
},
{
    "TweetId": "995880205699842048",
    "created_at": "Mon May 14 04:15:18 +0000 2018",
    "geo": "None",
    "text": "RT @RobertaMangiaf1: #Sicilia #mare #sole #Sunday #sea #sunset #Sicily #Happiness #festadellamamma2018 https://t.co/hYPRUvijEk",
    "userName": "Rev Kane"
},
{
    "TweetId": "995880264864706560",
    "created_at": "Mon May 14 04:15:32 +0000 2018",
    "geo": "None",
    "text": "RT @Iemonsoup: wanna spent the rest of my sunset with you \ud83c\udf1e\ud83e\udd64 https://t.co/Oxt5tT2XKh",
    "userName": "\u2605\ub450\ubd80\ubbfc"
},
{
    "TweetId": "995880281142784000",
    "created_at": "Mon May 14 04:15:36 +0000 2018",
    "geo": "None",
    "text": "RT @Iemonsoup: wanna spent the rest of my sunset with you \ud83c\udf1e\ud83e\udd64 https://t.co/Oxt5tT2XKh",
    "userName": "him"
},
{
    "TweetId": "995880282111721472",
    "created_at": "Mon May 14 04:15:36 +0000 2018",
    "geo": "None",
    "text": "RT @landpsychology: Sunset &amp; Giraffe, Botswana https://t.co/BLJPGJn5ur",
    "userName": "Shala Howell"
},
{
    "TweetId": "995880283973955584",
    "created_at": "Mon May 14 04:15:36 +0000 2018",
    "geo": "None",
    "text": "RT @planetepics: A lone giraffe stands tall at sunset with the stunning mountains in the back. \nhttps://t.co/Ypsq9xYJz3 https://t.co/yqzcW9\u2026",
    "userName": "Izzat Fazriee Jafri"
},
{
    "TweetId": "995880304412774400",
    "created_at": "Mon May 14 04:15:41 +0000 2018",
    "geo": "None",
    "text": "Sunset en Venice Beach, LA\ud83d\ude0d https://t.co/AFw7PzcVhp",
    "userName": "Loladriana"
},
{
    "TweetId": "995880316022738944",
    "created_at": "Mon May 14 04:15:44 +0000 2018",
    "geo": "None",
    "text": "RT @Monique_PR_: \ud83c\udf04Yesterdays spectacular sunset amidst a storm...\n\n\ud83d\udcadStrength in turmoil is beautiful. \n\n#SundayMotivation #Drakensberg #Kwa\u2026",
    "userName": "TravelMassive Africa"
},
{
    "TweetId": "995880316739796993",
    "created_at": "Mon May 14 04:15:44 +0000 2018",
    "geo": "None",
    "text": "RT @Iemonsoup: wanna spent the rest of my sunset with you \ud83c\udf1e\ud83e\udd64 https://t.co/Oxt5tT2XKh",
    "userName": "thunchaaaaaaaaaa"
},
{
    "TweetId": "995880338630041600",
    "created_at": "Mon May 14 04:15:49 +0000 2018",
    "geo": "None",
    "text": "One Hell of a Sunset? #mazatlan #sunset #nofilterneeded #isthisreal https://t.co/PtkOFfLIWD",
    "userName": "Blazer Real Estate"
},
{
    "TweetId": "995880351544229888",
    "created_at": "Mon May 14 04:15:53 +0000 2018",
    "geo": "None",
    "text": "RT @radenzakyputra1: br updte , haha , hp kecenplung laut lgsg error \ud83d\ude02 , ini foto kemarin pph sm ijan lg di KLAPA , mau liat sunset , sambi\u2026",
    "userName": "Dans"
},
{
    "TweetId": "995880375527223297",
    "created_at": "Mon May 14 04:15:58 +0000 2018",
    "geo": "None",
    "text": "RT @Iemonsoup: wanna spent the rest of my sunset with you \ud83c\udf1e\ud83e\udd64 https://t.co/Oxt5tT2XKh",
    "userName": "\u0e20\u0e32\u0e04\u0e34\u0e19\u0e0a\u0e32\u0e22\u0e2b\u0e19\u0e36\u0e48\u0e07 \u0e1b\u0e39\u0e19\u0e34\u0e48\u0e21\u0e21\u0e23\u0e13\u0e30"
},
{
    "TweetId": "995880373094465536",
    "created_at": "Mon May 14 04:15:58 +0000 2018",
    "geo": "None",
    "text": "The set! #Livermore style #sunset  One of the few towns in #bayarea where you will not see the new #homes going up\u2026 https://t.co/tgYiHzINcJ",
    "userName": "Waseem Sufi"
},
{
    "TweetId": "995880426613956608",
    "created_at": "Mon May 14 04:16:10 +0000 2018",
    "geo": "{'type': 'Point', 'coordinates': [34.37484, -119.47894]}",
    "text": "Dad\u2019s and kids with a Mother\u2019s day sunset.....Mom\u2019s somewhere else\u2026 https://t.co/j3TDef9UCw",
    "userName": "Tim Jensen"
},
{
    "TweetId": "995880437409955840",
    "created_at": "Mon May 14 04:16:13 +0000 2018",
    "geo": "None",
    "text": "RT @mtsiboyssoccer: Wildcats! We are confirmed for TUESDAY, 7pm vs Sumner at Sunset Stadium!! Let\u2019s take it to \u2018em!",
    "userName": "Reed Paradissis"
},
{
    "TweetId": "995880473627910145",
    "created_at": "Mon May 14 04:16:22 +0000 2018",
    "geo": "{'type': 'Point', 'coordinates': [64.1265, -21.8174]}",
    "text": "Good morning, Reykjav\u00edk! :) #Sunrise 04:16, noon 13:24, sunset 22:34 GMT (UTC), May 14. Day length: 18h 18m.",
    "userName": "Sol Tempore"
},
{
    "TweetId": "995880477482401792",
    "created_at": "Mon May 14 04:16:23 +0000 2018",
    "geo": "None",
    "text": "RT @iHeartRadio: When you finally get the perfect sunset-selfie... \ud83c\udf05 | @BTS_twt https://t.co/EpGAMpjKsy",
    "userName": "BiBangtanBoys"
},
{
    "TweetId": "995880499246579712",
    "created_at": "Mon May 14 04:16:28 +0000 2018",
    "geo": "None",
    "text": "RT @KarmaDealers: Happy Mother\u2019s Day @JulieEllerton \u2728\ud83d\ude4c\u2728\ud83c\udf38\ud83c\udf38\ud83c\udf38\u2764\ufe0f https://t.co/Z9vE5nWb7D",
    "userName": "Anita Chala"
},
{
    "TweetId": "995880503092883456",
    "created_at": "Mon May 14 04:16:29 +0000 2018",
    "geo": "{'type': 'Point', 'coordinates': [-12.9906, 28.6498]}",
    "text": "Good morning, Ndola! :) #Sunrise 06:16, noon 12:02, sunset 17:47 CAT (UTC+2), May 14. Day length: 11h 31m.",
    "userName": "Sol Tempore"
},
{
    "TweetId": "995880520360673281",
    "created_at": "Mon May 14 04:16:33 +0000 2018",
    "geo": "None",
    "text": "RT @iHeartRadio: When you finally get the perfect sunset-selfie... \ud83c\udf05 | @BTS_twt https://t.co/EpGAMpjKsy",
    "userName": "--"
},
{
    "TweetId": "995880550765228032",
    "created_at": "Mon May 14 04:16:40 +0000 2018",
    "geo": "None",
    "text": "RT @Arting_2D: \uc11d\uc591\n#\uc11d\uc591 #\ubc14\ub2e4 #\ud48d\uacbd #\ud658\uacbd #\uc790\ub8cc #\uc544\ud2b8\uc778\uc9c0\n#Sunset #Sea #Background #Environment #Reference #ArtInG https://t.co/BeSJDBdWnq",
    "userName": "{\ud0b4\ud2f0\uccd0}\uae40\ub35c\ub801\uc120\uc0dd\ud600\uc758\uc720\ubb34"
},
{
    "TweetId": "995880561221754885",
    "created_at": "Mon May 14 04:16:43 +0000 2018",
    "geo": "None",
    "text": "Last night in Stehekin. No clouds for sunset, yet it was magical\u2026 https://t.co/hxz4PYwfNB",
    "userName": "Angie Douglas"
},
{
    "TweetId": "995880566145904640",
    "created_at": "Mon May 14 04:16:44 +0000 2018",
    "geo": "None",
    "text": "RT @ppchs2018: Let\u2019s celebrate our final moments together at Senior Sunset \u203c\ufe0f \ud83c\udf1e\u203c\ufe0f https://t.co/PPAxlfJF8D",
    "userName": "Joshua Dubin"
},
{
    "TweetId": "995880570792984576",
    "created_at": "Mon May 14 04:16:45 +0000 2018",
    "geo": "None",
    "text": "RT @SunsetGrillCA: Have you met Deepa? Read our #BreakfastMoms series: Meet the strong, talented women behind Sunset Grill. \ud83c\udf38 https://t.co/\u2026",
    "userName": "JLAUZA"
},
{
    "TweetId": "995880571761934336",
    "created_at": "Mon May 14 04:16:45 +0000 2018",
    "geo": "None",
    "text": "RT @Arting_2D: \uc11d\uc591\n#\uc11d\uc591 #\ubc14\ub2e4 #\ud48d\uacbd #\ud658\uacbd #\uc790\ub8cc #\uc544\ud2b8\uc778\uc9c0\n#Sunset #Sea #Background #Environment #Reference #ArtInG https://t.co/56BQHJZJDT",
    "userName": "{\ud0b4\ud2f0\uccd0}\uae40\ub35c\ub801\uc120\uc0dd\ud600\uc758\uc720\ubb34"
},
{
    "TweetId": "995880573481766912",
    "created_at": "Mon May 14 04:16:45 +0000 2018",
    "geo": "None",
    "text": "It's hard to find a sunset in the eye of a storm",
    "userName": "$C"
},
{
    "TweetId": "995880583262851072",
    "created_at": "Mon May 14 04:16:48 +0000 2018",
    "geo": "None",
    "text": "RT @john_a_photo: Stunning sky after sunset in Kinlochbervie Sutherland @StormHour @ThePhotoHour #sunset #scotland https://t.co/QMOJ9AJKmV",
    "userName": "\u269c\ufe0fRoxanne \u269c\ufe0f"
},
{
    "TweetId": "995880589378007040",
    "created_at": "Mon May 14 04:16:49 +0000 2018",
    "geo": "None",
    "text": "RT @equalmotion: The view of a beautiful Seattle waterfront sunset in celebration of all the moms out there. https://t.co/vqRbGwVlJj",
    "userName": "Kazumi"
},
{
    "TweetId": "995880597573783552",
    "created_at": "Mon May 14 04:16:51 +0000 2018",
    "geo": "None",
    "text": "RT @FotosFamiliaMdP: Para nost\u00e1lgicos, otra vueltita por la Avenida del Ruido : Sobremonte (versi\u00f3n original), Sunset y Beduinos (con las \"\u2026",
    "userName": "CarinaPerticone"
},
{
    "TweetId": "995880606318837760",
    "created_at": "Mon May 14 04:16:53 +0000 2018",
    "geo": "None",
    "text": "RT @D_V_Photography: This Joshua Tree Sunset in a ball image by @D_V_Photography is amazing! Find more #photography @viewbug https://t.co/0\u2026",
    "userName": "Denise Vasquez"
},
{
    "TweetId": "995880615370149888",
    "created_at": "Mon May 14 04:16:55 +0000 2018",
    "geo": "None",
    "text": "RT @Arting_2D: \uc11d\uc591\n#\uc11d\uc591 #\ubc14\ub2e4 #\ud48d\uacbd #\ud658\uacbd #\uc790\ub8cc #\uc544\ud2b8\uc778\uc9c0\n#Sunset #Sea #Background #Environment #Reference #ArtInG https://t.co/Y61um5FkvO",
    "userName": "{\ud0b4\ud2f0\uccd0}\uae40\ub35c\ub801\uc120\uc0dd\ud600\uc758\uc720\ubb34"
},
{
    "TweetId": "995880627626004481",
    "created_at": "Mon May 14 04:16:58 +0000 2018",
    "geo": "None",
    "text": "RT @BestPixMN: St. Paul just after sunset. Minneapolis in the distance. Photo by Logan Selinski. https://t.co/zbISSOSEcc",
    "userName": "Alec"
},
{
    "TweetId": "995880640246464513",
    "created_at": "Mon May 14 04:17:01 +0000 2018",
    "geo": "None",
    "text": "RT @lvweatherguy: Great looking sunset on Mother\"s Day 2018. @FOX5Vegas https://t.co/qbfMSHeuIj",
    "userName": "L. \ud83d\ude3bMANX\ud83d\udc3e\ud83d\udc06\ud83d\udc3e"
},
{
    "TweetId": "995880647829880835",
    "created_at": "Mon May 14 04:17:03 +0000 2018",
    "geo": "None",
    "text": "RT @saltandseeimage: @MargaretOrr We had a beautiful end to a wonderful mother's day - hope you all did too!  5.13.18  #sunset #thephotohou\u2026",
    "userName": "Stewart Oldham"
},
{
    "TweetId": "995880661406830594",
    "created_at": "Mon May 14 04:17:06 +0000 2018",
    "geo": "None",
    "text": "RT @D_V_Photography: This Joshua Tree Sunset in a ball image by @D_V_Photography is amazing! Find more #photography @viewbug https://t.co/0\u2026",
    "userName": "Celeb Vinyl Doll"
},
{
    "TweetId": "995880688308994049",
    "created_at": "Mon May 14 04:17:13 +0000 2018",
    "geo": "None",
    "text": "RT @planetepics: A lone giraffe stands tall at sunset with the stunning mountains in the back. \nhttps://t.co/Ypsq9xYJz3 https://t.co/yqzcW9\u2026",
    "userName": "welkin\u0e04\u0e37\u0e2d\u0e17\u0e49\u0e2d\u0e07\u0e1f\u0e49\u0e32"
},
{
    "TweetId": "995880698753048577",
    "created_at": "Mon May 14 04:17:15 +0000 2018",
    "geo": "None",
    "text": "@DollofDestuch \"Well well well, enjoying your night bath Sunset?\"\n*the dragonoid stood leant agaimst the wall, star\u2026 https://t.co/3fkARriKmt",
    "userName": "SpikeR34"
},
{
    "TweetId": "995880723474206720",
    "created_at": "Mon May 14 04:17:21 +0000 2018",
    "geo": "None",
    "text": "Friends of ours are in Brazil. They sent me this beautiful sunset. What a beautiful image! \u2600\ufe0f https://t.co/0uitq6oczJ",
    "userName": "Michelle Walters"
},
{
    "TweetId": "995880744592596992",
    "created_at": "Mon May 14 04:17:26 +0000 2018",
    "geo": "None",
    "text": "RT @dizifilmVreplik: Gen\u00e7ken ba\u011f kurabilece\u011fin bir\u00e7ok insan olacak san\u0131yorsun. Sonra bunun hayatta sadece birka\u00e7 kez oldu\u011funu anl\u0131yorsun. B\u2026",
    "userName": "Marcus VII"
},
{
    "TweetId": "995880745615831040",
    "created_at": "Mon May 14 04:17:26 +0000 2018",
    "geo": "None",
    "text": "RT @ItsEvocative: Sunset blessings https://t.co/p5Tx062Jqz",
    "userName": "KLAUS."
},
{
    "TweetId": "995880746077179904",
    "created_at": "Mon May 14 04:17:27 +0000 2018",
    "geo": "None",
    "text": "RT @RealSaltLife: #Sunset state of mind \ud83c\udf05\n#LoveTheSaltLife https://t.co/sY25Gzr0bR",
    "userName": "Crown Lanta Resort"
},
{
    "TweetId": "995880755359170561",
    "created_at": "Mon May 14 04:17:29 +0000 2018",
    "geo": "None",
    "text": "@arhoads76 That\u2019s a cute app. Wish it had sunrise/sunset",
    "userName": "bryan costanich"
},
{
    "TweetId": "995881678429196288",
    "created_at": "Mon May 14 04:21:09 +0000 2018",
    "geo": "None",
    "text": "RT @DamarisPena09: I wanna see the sunrise on a beach smokin on some gas",
    "userName": "Monica"
},
{
    "TweetId": "995881694564532224",
    "created_at": "Mon May 14 04:21:13 +0000 2018",
    "geo": "None",
    "text": "The natural scenery is the most harmonious. https://t.co/5WYhKnJDw3",
    "userName": "Girll Morales"
},
{
    "TweetId": "995881734674644992",
    "created_at": "Mon May 14 04:21:22 +0000 2018",
    "geo": "None",
    "text": "@lukechords they are meeting fans at sunrise in sydney",
    "userName": "sonya loves ashton | 9&14"
},
{
    "TweetId": "995881739007377409",
    "created_at": "Mon May 14 04:21:23 +0000 2018",
    "geo": "None",
    "text": "RT @jo_an1984: Good Morning my sunshine @mainedcm @aldenrichards02 as amazing as this sunrise my admiration for both of you still and every\u2026",
    "userName": "Lola Ima"
},
{
    "TweetId": "995881751749816320",
    "created_at": "Mon May 14 04:21:26 +0000 2018",
    "geo": "None",
    "text": "RT @simplyradio: #HouseMusic #EDM #EDC friday sunrise mix 6-20-14 [18KK] by DJ Scan #edm #house #dj #np https://t.co/w8ZM07OhKT",
    "userName": "EDM Xchange"
},
{
    "TweetId": "995881773857955842",
    "created_at": "Mon May 14 04:21:32 +0000 2018",
    "geo": "None",
    "text": "I haven\u2019t witnessed a sunrise in months so so beautiful wow",
    "userName": "morty"
},
{
    "TweetId": "995881845324595200",
    "created_at": "Mon May 14 04:21:49 +0000 2018",
    "geo": "None",
    "text": "[HQ] 180513 #EXO_CBX #CHEN @ #CBX_MagicalCircus\n\nCR. special sunrise https://t.co/YssSyh4xob",
    "userName": "#KINGJongdaePH \ud83d\udc51"
},
{
    "TweetId": "995881847023321088",
    "created_at": "Mon May 14 04:21:49 +0000 2018",
    "geo": "None",
    "text": "RT @oneplanetmikey: Sunrise is using London Calling by The Clash to open the show for their week in for the Royal wedding and it's like the\u2026",
    "userName": "Sonia - We need a Federal ICAC now \ud83c\udff3\ufe0f\u200d\ud83c\udf08"
},
{
    "TweetId": "995881855026106368",
    "created_at": "Mon May 14 04:21:51 +0000 2018",
    "geo": "None",
    "text": "RT @TaslerPhoto: Good morning!  Sunrise on 9th street (kansas city) from my archives. https://t.co/rA75zDiwHk",
    "userName": "eruca"
},
{
    "TweetId": "995881870234603520",
    "created_at": "Mon May 14 04:21:55 +0000 2018",
    "geo": "None",
    "text": "RT @kimjongdaephl: [HQ] 180513 #EXO_CBX #CHEN @ #CBX_MagicalCircus\n\nCR. special sunrise https://t.co/YssSyh4xob",
    "userName": "LoveJongdae \ud83d\udc9e"
},
{
    "TweetId": "995881884239441921",
    "created_at": "Mon May 14 04:21:58 +0000 2018",
    "geo": "None",
    "text": "RT @MeganCBarry: .@JohnPrineMusic in my head &amp; sunrise that brings a new day. Like so many who\u2019ve lost a child, I\u2019m greeting today as I hav\u2026",
    "userName": "Claire Holland"
},
{
    "TweetId": "995881908725731329",
    "created_at": "Mon May 14 04:22:04 +0000 2018",
    "geo": "None",
    "text": "Sunrise on Twitter: \"Google is under investigation after it was revealed they use 1gb of mobile data ... #ITRTG\u2026 https://t.co/RldptLJNQZ",
    "userName": "Android Facts"
},
{
    "TweetId": "995881916422393856",
    "created_at": "Mon May 14 04:22:06 +0000 2018",
    "geo": "None",
    "text": "Sunrise for May 14, 2018 at 05:18AM! Current conditions are Partly Cloudy.",
    "userName": "ComberWX"
},
{
    "TweetId": "995881985720500224",
    "created_at": "Mon May 14 04:22:22 +0000 2018",
    "geo": "None",
    "text": "RT @sunriseon7: You want them back, we want them back\u2026 so we got them back! \ud83d\ude35\n\n@5SOS are coming to Sunrise on May 28 and you're ALL invited\u2026",
    "userName": "michaella.\ud83c\udf3b"
},
{
    "TweetId": "995882004955717633",
    "created_at": "Mon May 14 04:22:27 +0000 2018",
    "geo": "None",
    "text": "Mornin'! It's May 14, 2018 at 05:17AM - #Sunrise in England. Today's High is 66F and Low is 44F. Currently it's 42F and Sunny.",
    "userName": "_banzai_"
},
{
    "TweetId": "995882025700687872",
    "created_at": "Mon May 14 04:22:32 +0000 2018",
    "geo": "None",
    "text": "Sunrise today...... Mesmerising and little later https://t.co/8NhAXnHnnT",
    "userName": "Santosh Tripathi"
},
{
    "TweetId": "995882049301958658",
    "created_at": "Mon May 14 04:22:37 +0000 2018",
    "geo": "None",
    "text": "RT @kimjongdaephl: [HQ] 180513 #EXO_CBX #CHEN @ #CBX_MagicalCircus\n\nCR. special sunrise https://t.co/YssSyh4xob",
    "userName": "\u0e41\u0e14 \u26a1"
},
{
    "TweetId": "995882073134166016",
    "created_at": "Mon May 14 04:22:43 +0000 2018",
    "geo": "None",
    "text": "RT @garrixs0ul: Happy birthday to the best person I could meet, the angel that saved my life and made it better. There are no words that ca\u2026",
    "userName": "nahuel"
},
{
    "TweetId": "995882097112899584",
    "created_at": "Mon May 14 04:22:49 +0000 2018",
    "geo": "None",
    "text": "RT @kimjongdaephl: [HQ] 180513 #EXO_CBX #CHEN @ #CBX_MagicalCircus\n\nCR. special sunrise https://t.co/YssSyh4xob",
    "userName": "les \ud83c\udf38"
},
{
    "TweetId": "995882112111726592",
    "created_at": "Mon May 14 04:22:52 +0000 2018",
    "geo": "None",
    "text": "RT @tdptrending: @ncbn You are the only hope for Sunrise state of AP.",
    "userName": "Sumanth nallamothu"
},
{
    "TweetId": "995882182865399809",
    "created_at": "Mon May 14 04:23:09 +0000 2018",
    "geo": "None",
    "text": "RT @kimjongdaephl: [HQ] 180513 #EXO_CBX #CHEN @ #CBX_MagicalCircus\n\nCR. special sunrise https://t.co/YssSyh4xob",
    "userName": "\u2113-1485  Baekchen's"
},
{
    "TweetId": "995882201630756864",
    "created_at": "Mon May 14 04:23:14 +0000 2018",
    "geo": "None",
    "text": "RT @kimjongdaephl: [HQ] 180513 #EXO_CBX #CHEN @ #CBX_MagicalCircus\n\nCR. special sunrise https://t.co/YssSyh4xob",
    "userName": "ONGSUCHEN\ud83d\udc95"
},
{
    "TweetId": "995882224313556992",
    "created_at": "Mon May 14 04:23:19 +0000 2018",
    "geo": "None",
    "text": "RT @rockbeat0: Does anyone want to watch the sunrise with me on Tuesday for celebrating our last day of school with me? Like if you do\ud83d\ude07 Pla\u2026",
    "userName": "Dawson"
},
{
    "TweetId": "995882229166411776",
    "created_at": "Mon May 14 04:23:20 +0000 2018",
    "geo": "None",
    "text": "Sunrise for Wiltshire! The day's High is 19C with a Low of 8C. Current conditions are Sunny.",
    "userName": "Wiltshire Sun"
},
{
    "TweetId": "995882236946845696",
    "created_at": "Mon May 14 04:23:22 +0000 2018",
    "geo": "None",
    "text": "New artwork for sale! - \"Sunrise at Gray's Lake\" - https://t.co/JWcXDUc6oC @fineartamerica https://t.co/zLW1frDgGI",
    "userName": "Tony Simons"
},
{
    "TweetId": "995882265279451136",
    "created_at": "Mon May 14 04:23:29 +0000 2018",
    "geo": "None",
    "text": "RT: Sunrise Valley ES #SunriseValleyES #Elementary #School for #SummerCamp at #RoyalCyberClub \ud83d\udd70\ufe0f\ud83d\udda5\ufe0f\ud83c\udfae\ud83d\udc8e https://t.co/QXAh96xOqA",
    "userName": "Web Ads 101"
},
{
    "TweetId": "995882277421789185",
    "created_at": "Mon May 14 04:23:32 +0000 2018",
    "geo": "None",
    "text": "RT @gintamamovie: \u300c\u9280\u9b42\u300d\u30aa\u30fc\u30eb\u30ca\u30a4\u30c8\u4e0a\u6620\u4f1a\u306e\u4e0a\u6620\u8a71\u6570&amp;\u30b2\u30b9\u30c8\u3092\u516c\u958b\u3057\u307e\u3057\u305f\uff017\u6708\u304b\u3089\u653e\u9001\u518d\u958b\u306e\u300c\u9280\u30ce\u9b42\u7bc7\u300d\u5f8c\u534a\u6226\u306b\u7e4b\u304c\u308b\u8a71\u6570\u3092\u30d4\u30c3\u30af\u30a2\u30c3\u30d7\uff01\u30b2\u30b9\u30c8\u306f\u666e\u6bb5\u8868\u306b\u51fa\u308b\u3053\u3068\u306e\u306a\u3044\uff08\uff1f\uff09\u9280\u9b42\u95a2\u4fc2\u8005\u304c\u767b\u58c7\u3057\u307e\u3059\uff01\u30c1\u30b1\u30c3\u30c8\u306f5/12\uff08\u571f\uff0913\u6642\uff5e\u8ca9\u58f2\u30b9\u30bf\u30fc\u30c8\uff01\u2192https\u2026",
    "userName": "Natsu@\u57f7\u884c\u6e08"
},
{
    "TweetId": "995882283927330816",
    "created_at": "Mon May 14 04:23:33 +0000 2018",
    "geo": "None",
    "text": "Looking at the GFS for storms..so who wants to be a sunset and sunrise chaser?",
    "userName": "Spencer Sills"
},
{
    "TweetId": "995882286120714240",
    "created_at": "Mon May 14 04:23:34 +0000 2018",
    "geo": "None",
    "text": "Sunrise \ud83d\ude4f\ud83c\udf05\ud83c\udfa7\ud83c\udfb6 #mondaymood #lifewithmusic @ Greifswald S\u00fcd https://t.co/vF8H3web8X",
    "userName": "Christian Rode"
},
{
    "TweetId": "995882301732114432",
    "created_at": "Mon May 14 04:23:37 +0000 2018",
    "geo": "None",
    "text": "RT @rockbeat0: Does anyone want to watch the sunrise with me on Tuesday for celebrating our last day of school with me? Like if you do\ud83d\ude07 Pla\u2026",
    "userName": "Nathan Scott"
},
{
    "TweetId": "995882310892388353",
    "created_at": "Mon May 14 04:23:40 +0000 2018",
    "geo": "None",
    "text": "@Derek_Petruso happy fucking birthday!!! Hopefully you live to see the sunrise \ud83d\ude01",
    "userName": "Danielle"
},
{
    "TweetId": "995882320291753984",
    "created_at": "Mon May 14 04:23:42 +0000 2018",
    "geo": "None",
    "text": "https://t.co/VeIH2yN10i",
    "userName": "Terence Lewis"
},
{
    "TweetId": "995882347953205248",
    "created_at": "Mon May 14 04:23:49 +0000 2018",
    "geo": "None",
    "text": "RT @kimjongdaephl: [HQ] 180513 #EXO_CBX #CHEN @ #CBX_MagicalCircus\n\nCR. special sunrise https://t.co/YssSyh4xob",
    "userName": "\u26a1\ubc88\uac1c\uccb8\u26a1"
},
{
    "TweetId": "995882355578597376",
    "created_at": "Mon May 14 04:23:50 +0000 2018",
    "geo": "None",
    "text": "RT: Sunrise Valley ES #SunriseValleyES #Elementary #School for Hands on #Robotics during STEM Summer Camp \ud83d\udd70\ufe0f\ud83d\udda5\ufe0f\ud83c\udfae\ud83d\udc8e https://t.co/oWzH23hCZ7",
    "userName": "Do More STEM"
},
{
    "TweetId": "995882377405784064",
    "created_at": "Mon May 14 04:23:56 +0000 2018",
    "geo": "None",
    "text": "Up to watch the sunrise this morning to travel to @OTPlymouthUni. As always if you have any questions about members\u2026 https://t.co/AvpQmilje2",
    "userName": "RCOTStudents"
},
{
    "TweetId": "995882381008551936",
    "created_at": "Mon May 14 04:23:56 +0000 2018",
    "geo": "None",
    "text": "RT @sunriseon7: Major @5SOS announcement on Sunrise this morning... \ud83d\ude35 https://t.co/IaSMr6ShYK",
    "userName": "Se Ju"
},
{
    "TweetId": "995882416030928896",
    "created_at": "Mon May 14 04:24:05 +0000 2018",
    "geo": "None",
    "text": "RT @kimjongdaephl: [HQ] 180513 #EXO_CBX #CHEN @ #CBX_MagicalCircus\n\nCR. special sunrise https://t.co/YssSyh4xob",
    "userName": "\u26a1\u201c \uadf8\uac8c \uc0ac\ub791 \u201c\u26a1"
},
{
    "TweetId": "995882436297883648",
    "created_at": "Mon May 14 04:24:10 +0000 2018",
    "geo": "None",
    "text": "#MondayMorning - Good Morning friends and #Travelers \nA Golden #Sunrise greets us in #Mpumalanaga as  new week of\u2026 https://t.co/6vfDDdGVN7",
    "userName": "N-Routes South Africa"
},
{
    "TweetId": "995882441536655360",
    "created_at": "Mon May 14 04:24:11 +0000 2018",
    "geo": "None",
    "text": "Sunrise for Weston-super-Mare May 14, 2018 at 05:22AM! The day's High is 15C with a Low of 8C. Current conditions a\u2026 https://t.co/3lpt918ql7",
    "userName": "Mark Bradshaw"
},
{
    "TweetId": "995882450252455936",
    "created_at": "Mon May 14 04:24:13 +0000 2018",
    "geo": "None",
    "text": "Sunrise en Caen! Y est\u00e1 Clear! A unos 8 grados ^__",
    "userName": "mig"
},
{
    "TweetId": "995882451779096576",
    "created_at": "Mon May 14 04:24:13 +0000 2018",
    "geo": "None",
    "text": "@BBCTees @amy_oakden @greenyfrom6am So lucky to have these views from the house. The front over the sea and the rea\u2026 https://t.co/HxVXi9XfK7",
    "userName": "Alastair Smith"
},
{
    "TweetId": "995882464869519360",
    "created_at": "Mon May 14 04:24:16 +0000 2018",
    "geo": "None",
    "text": "Sunrise in Cornwall. https://t.co/dUTVzCDZfD",
    "userName": "Peggy S Olson"
},
{
    "TweetId": "995882569274155013",
    "created_at": "Mon May 14 04:24:41 +0000 2018",
    "geo": "None",
    "text": "it gets light too early now. I feel bad for staying up until sunrise",
    "userName": "joe"
},
{
    "TweetId": "995882623200358400",
    "created_at": "Mon May 14 04:24:54 +0000 2018",
    "geo": "None",
    "text": "RT @TaslerPhoto: Good morning!  Sunrise on 9th street (kansas city) from my archives. https://t.co/rA75zDiwHk",
    "userName": "Deborah"
},
{
    "TweetId": "995882647338569728",
    "created_at": "Mon May 14 04:25:00 +0000 2018",
    "geo": "{'type': 'Point', 'coordinates': [14.5586, 121.208]}",
    "text": "Teresa sunrise!\n#sunrise #Philippines #philippinesunrise @ Teresa,\u2026 https://t.co/n3QXiXgLAA",
    "userName": "Byron Villegas"
},
{
    "TweetId": "995882669178277888",
    "created_at": "Mon May 14 04:25:05 +0000 2018",
    "geo": "None",
    "text": "My auntie mad at me for forgetting her birthday... but I was literally drunk that entire weekend... like from sunri\u2026 https://t.co/K8xiqUEzyA",
    "userName": "G-Baby\u2728"
},
{
    "TweetId": "995882689222897664",
    "created_at": "Mon May 14 04:25:10 +0000 2018",
    "geo": "None",
    "text": "RT @ProvenceGuide: Quand le \u2600\ufe0f se l\u00e8ve tout doucement sur #Avignon... Bon week-end \u00e0 tous \ud83d\ude0a#sunrise \u00a9Couleurs Nature Did'Art https://t.co/I\u2026",
    "userName": "BOUYAC Jacqueline"
},
{
    "TweetId": "995882704582438912",
    "created_at": "Mon May 14 04:25:14 +0000 2018",
    "geo": "None",
    "text": "Sunrise for May 14, 2018 at 05:21AM!",
    "userName": "Dromore News"
},
{
    "TweetId": "995882716771049472",
    "created_at": "Mon May 14 04:25:16 +0000 2018",
    "geo": "None",
    "text": "Sunrise :May 14, 2018 at 06:20AM ! T\u00b0.Max :15\u00b0C, T\u00b0.Min :12\u00b0C. M\u00e9t\u00e9o : https://t.co/Ck5jC0iSY6 Cloudy. Good Day in all :D",
    "userName": "Maxime CREPIN"
},
{
    "TweetId": "995882723477803008",
    "created_at": "Mon May 14 04:25:18 +0000 2018",
    "geo": "None",
    "text": "RT @miliman12photos: I don't normally take pics of strangers, but these two fit perfectly with the sky!  #SundaySunsets #sunrise #stormhour\u2026",
    "userName": "Ida \ud83c\udf3c"
},
{
    "TweetId": "995882836941918208",
    "created_at": "Mon May 14 04:25:45 +0000 2018",
    "geo": "None",
    "text": "RT @kimjongdaephl: [HQ] 180513 #EXO_CBX #CHEN @ #CBX_MagicalCircus\n\nCR. special sunrise https://t.co/YssSyh4xob",
    "userName": "ChenSupremacist"
},
{
    "TweetId": "995882854562213889",
    "created_at": "Mon May 14 04:25:49 +0000 2018",
    "geo": "None",
    "text": "RT @sbhandari16: There was never a night or a problem that could defeat sunrise or hope. #GoodMorning\n\n#Sunrise #Nature #Photography #bless\u2026",
    "userName": "\u092e\u0941\u0915\u0947\u0936 \u092a\u093e\u0923\u094d\u0921\u0947\u092f \ud83c\uddee\ud83c\uddf3"
},
{
    "TweetId": "995882861818449920",
    "created_at": "Mon May 14 04:25:51 +0000 2018",
    "geo": "None",
    "text": "This morning! What a beautiful gift. Good morning folks. I hope you enjoy a wonderful day. \ud83d\ude0a #sunrise #Scotland\u2026 https://t.co/fUMlbVMNM8",
    "userName": "Nick Ray"
},
{
    "TweetId": "995882874518765568",
    "created_at": "Mon May 14 04:25:54 +0000 2018",
    "geo": "None",
    "text": "Sunrise \u25cb\u25cf\u25ce https://t.co/33tvg7bXLd",
    "userName": "Perlas"
},
{
    "TweetId": "995882874627874816",
    "created_at": "Mon May 14 04:25:54 +0000 2018",
    "geo": "None",
    "text": "I guess the good thing about jet lag recovery is enjoying the 5am sunrise with a cuppa and the cat.",
    "userName": "Alex Bond \ud83c\udff3\ufe0f\u200d\ud83c\udf08\ud83c\udde8\ud83c\udde6"
},
{
    "TweetId": "995882886950805509",
    "created_at": "Mon May 14 04:25:57 +0000 2018",
    "geo": "None",
    "text": "RT @srsslysteph: Faith will be with you FOREVER but sometimes you just need someone to hug.. \ud83d\udc96\ud83d\udc3b On the day of Faithy\u2019s passing, me &amp; one of\u2026",
    "userName": "chynna jo"
},
{
    "TweetId": "995882902045933568",
    "created_at": "Mon May 14 04:26:01 +0000 2018",
    "geo": "{'type': 'Point', 'coordinates': [53.34, -6.25]}",
    "text": "5:26am: sunrise\nsunset will be at 9:16pm",
    "userName": "Dublin Weather"
},
{
    "TweetId": "995882934799360000",
    "created_at": "Mon May 14 04:26:08 +0000 2018",
    "geo": "None",
    "text": "RT @MugambiDon: Nairobi sunrise today from 6:15 - 6:38 - 6:57 https://t.co/Drj8ty5zbG",
    "userName": "Kalasinga"
},
{
    "TweetId": "995882939828224000",
    "created_at": "Mon May 14 04:26:10 +0000 2018",
    "geo": "{'type': 'Point', 'coordinates': [-20.17, 28.58]}",
    "text": "6:26am: sunrise\nsunset will be at 5:37pm",
    "userName": "Bulawayo Weather"
},
{
    "TweetId": "995882961403764736",
    "created_at": "Mon May 14 04:26:15 +0000 2018",
    "geo": "None",
    "text": "RT @earthskyscience: This morning's moonrise - shortly before sunrise - by Gary Peltz in Seattle.\n\nView is looking over Lake Washington tow\u2026",
    "userName": "FUCK FUCKIN' DICKY SYSTEM"
},
{
    "TweetId": "995882983356813312",
    "created_at": "Mon May 14 04:26:20 +0000 2018",
    "geo": "None",
    "text": "Sunrise for May 14, 2018 at 05:22AM! 18 C for today! #sunrise",
    "userName": "Jo\u00e3o Silva"
},
{
    "TweetId": "995883011802464256",
    "created_at": "Mon May 14 04:26:27 +0000 2018",
    "geo": "None",
    "text": "RT @NepalPyramids: Morning sunrise from Tadapani painting the sky and lighting up the Fishtail.\n#nepal #kathmandu #trekking #hiking #pokhar\u2026",
    "userName": "LAIHRI PHAGLU"
},
{
    "TweetId": "995883013086089216",
    "created_at": "Mon May 14 04:26:27 +0000 2018",
    "geo": "None",
    "text": "RT @NepalPyramids: Morning sunrise from Tadapani painting the sky and lighting up the Fishtail.\n#nepal #kathmandu #trekking #hiking #pokhar\u2026",
    "userName": "Himchali Retweets"
},
{
    "TweetId": "995883105482403840",
    "created_at": "Mon May 14 04:26:49 +0000 2018",
    "geo": "None",
    "text": "RT @zippoglisia: Such a beautiful sunrise. Nairobae is awake. Good morning World.\ud83d\ude0a\n My phone takes lovely photos, I must say. \ud83d\ude01\n \ud83d\udc9b\ud83d\udc9b\ud83d\udc9b\ud83d\udc9b https\u2026",
    "userName": "Mueni Muisyo"
},
{
    "TweetId": "995883112675524610",
    "created_at": "Mon May 14 04:26:51 +0000 2018",
    "geo": "None",
    "text": "RT @TaslerPhoto: Good morning!  Sunrise on 9th street (kansas city) from my archives. https://t.co/rA75zDiwHk",
    "userName": "t\u2019oni"
},
{
    "TweetId": "995883115942940672",
    "created_at": "Mon May 14 04:26:52 +0000 2018",
    "geo": "None",
    "text": "RT @EnjoyNature: Petunias or Petunia Flowers Farm Sunrise in #Taiwan\n\n#Travel #Photo #Nature #Flowers #Photos #Beauty #Plants #Spring #Flow\u2026",
    "userName": "IDTWatch"
},
{
    "TweetId": "995883116035272704",
    "created_at": "Mon May 14 04:26:52 +0000 2018",
    "geo": "None",
    "text": "RT @gurule_jadenn: Don\u2019t waste sunsets with people who will be gone by sunrise.",
    "userName": "Brady Lenz"
},
{
    "TweetId": "995883122741800962",
    "created_at": "Mon May 14 04:26:53 +0000 2018",
    "geo": "None",
    "text": "RT @CNLastro: the ice is finally melting :D some open water on the shores of a beautiful lake! #midnightsun #sunset #sunrise #Alaska #Fairb\u2026",
    "userName": "flocke"
},
{
    "TweetId": "995883142174199808",
    "created_at": "Mon May 14 04:26:58 +0000 2018",
    "geo": "None",
    "text": "RT @zippoglisia: Such a beautiful sunrise. Nairobae is awake. Good morning World.\ud83d\ude0a\n My phone takes lovely photos, I must say. \ud83d\ude01\n \ud83d\udc9b\ud83d\udc9b\ud83d\udc9b\ud83d\udc9b https\u2026",
    "userName": "Black Gold"
},
{
    "TweetId": "995883156355014656",
    "created_at": "Mon May 14 04:27:01 +0000 2018",
    "geo": "{'type': 'Point', 'coordinates': [36.36, 6.61]}",
    "text": "5:27am: sunrise\nsunset will be at 7:32pm",
    "userName": "Constantine Weather"
},
{
    "TweetId": "995883156531302400",
    "created_at": "Mon May 14 04:27:01 +0000 2018",
    "geo": "None",
    "text": "RT @MugambiDon: Nairobi sunrise today from 6:15 - 6:38 - 6:57 https://t.co/Drj8ty5zbG",
    "userName": "Brian M. Njoroge"
},
{
    "TweetId": "995883163816742912",
    "created_at": "Mon May 14 04:27:03 +0000 2018",
    "geo": "None",
    "text": "Sunrise for May 14, 2018 at 05:22AM! The day's High is 18C with a Low of 8C. Current conditions are Clear.",
    "userName": "Rhys C Jones"
},
{
    "TweetId": "995883223572996096",
    "created_at": "Mon May 14 04:27:17 +0000 2018",
    "geo": "None",
    "text": "RT @MugambiDon: Nairobi sunrise today from 6:15 - 6:38 - 6:57 https://t.co/Drj8ty5zbG",
    "userName": "Martin Sigei"
},
{
    "TweetId": "995883232666177536",
    "created_at": "Mon May 14 04:27:19 +0000 2018",
    "geo": "None",
    "text": "RT @askmenfess: [askMF] mendengar banyak berita pengeboman di banyak daerah membuatku takut dan merasa tidak aman. prolly this is lebay but\u2026",
    "userName": "Jihannya ngegalau dulu."
},
{
    "TweetId": "995883258717114369",
    "created_at": "Mon May 14 04:27:26 +0000 2018",
    "geo": "{'type': 'Point', 'coordinates': [53.3441, -6.2675]}",
    "text": "Good morning, Dublin! :) #Sunrise 05:27, noon 13:21, sunset 21:17 IST (UTC+1), May 14. Day length: 15h 50m.",
    "userName": "Sol Tempore"
},
{
    "TweetId": "995883261015609344",
    "created_at": "Mon May 14 04:27:26 +0000 2018",
    "geo": "None",
    "text": "An industrial morning view with the sunrise in #Stoke. Heading back to the hub ready for an 0600 finish with\u2026 https://t.co/d4zgPLrmwn",
    "userName": "Greg Du Bois (WMAS)"
},
{
    "TweetId": "997138139796848648",
    "created_at": "Thu May 17 15:33:53 +0000 2018",
    "geo": "None",
    "text": "the tour guides in every town we have stopped in say the weather gods have blessed us on this cruise so far, normal\u2026 https://t.co/wiZXtOHoKT",
    "userName": "kayli"
},
{
    "TweetId": "997138141155704832",
    "created_at": "Thu May 17 15:33:53 +0000 2018",
    "geo": "None",
    "text": "Day 137 of 365\n\nWent to St. Jude \u263a Had my hair trimmed due to the weather and just to get a new look before vacation \ud83d\ude02",
    "userName": "Jake Crisostomo"
},
{
    "TweetId": "997138144263917568",
    "created_at": "Thu May 17 15:33:54 +0000 2018",
    "geo": "None",
    "text": "NC Weather Forecast: When Will Davidson See The Sun Again? https://t.co/fXHJHuAScG",
    "userName": "Davidson Patch"
},
{
    "TweetId": "997138145534664704",
    "created_at": "Thu May 17 15:33:54 +0000 2018",
    "geo": "None",
    "text": "RT @myaxleos: so cal weather got me wondering if tomorrow bouta be a hot 74 or a cold 74",
    "userName": "Sky"
},
{
    "TweetId": "997138146197417985",
    "created_at": "Thu May 17 15:33:54 +0000 2018",
    "geo": "None",
    "text": "RT @Kgahli_: Nice Weather \ud83c\udf42 https://t.co/7N4cGn5dMm",
    "userName": "\ud83d\udc9e"
},
{
    "TweetId": "997138146532962306",
    "created_at": "Thu May 17 15:33:54 +0000 2018",
    "geo": "None",
    "text": "RT @TheTweetOfGod: My aim's not what it used to be. https://t.co/VGxmUux5s8",
    "userName": "Carrye DeCrane"
},
{
    "TweetId": "997138147593998336",
    "created_at": "Thu May 17 15:33:54 +0000 2018",
    "geo": "{'type': 'Point', 'coordinates': [-27.98, 26.74]}",
    "text": "current weather in Welkom: clear sky, 18\u00b0C\n24% humidity, wind 4kmh, pressure 877mb",
    "userName": "Welkom Weather"
},
{
    "TweetId": "997138148802093059",
    "created_at": "Thu May 17 15:33:55 +0000 2018",
    "geo": "None",
    "text": "RT @mayabp__: Locals: mental health isn\u2019t a joke!\n\nAlso locals: swear I have OCD \ud83d\ude33 I\u2019m an actual psycho \ud83e\udd37\ud83c\udffc\u200d\u2640\ufe0f gives me anxiety when people\u2026",
    "userName": "Toniseya Nicole"
},
{
    "TweetId": "997138146545594368",
    "created_at": "Thu May 17 15:33:54 +0000 2018",
    "geo": "None",
    "text": "My last journey on the direct NXG to ECR, Horsham train. The beautiful weather acting as a little farewell. From ne\u2026 https://t.co/zJtrZVIgQX",
    "userName": "Lizzie Reed"
},
{
    "TweetId": "997138150039478272",
    "created_at": "Thu May 17 15:33:55 +0000 2018",
    "geo": "None",
    "text": "WHAT THE FUUUUUCK I HATE THE WEATHER HERE!!!",
    "userName": "ellibird"
},
{
    "TweetId": "997138150475681794",
    "created_at": "Thu May 17 15:33:55 +0000 2018",
    "geo": "None",
    "text": "RT @TBLightning: Weather forecast for tonight: Plenty of Lightning in the area. \u26a1\ufe0f\n\n#GoBolts | #StanleyCup https://t.co/kizvqdBRWN",
    "userName": "Cecelia Metz"
},
{
    "TweetId": "997138151343886337",
    "created_at": "Thu May 17 15:33:55 +0000 2018",
    "geo": "None",
    "text": "RT @Tyler_Deisley: When Josh Abbott Band said \u201cher moods can change like the weather out in Lubbock\u201d I felt that. Since it\u2019s hailing.......\u2026",
    "userName": "AlexK Moore"
},
{
    "TweetId": "997138152069398528",
    "created_at": "Thu May 17 15:33:56 +0000 2018",
    "geo": "None",
    "text": "RT @mayabp__: Locals: mental health isn\u2019t a joke!\n\nAlso locals: swear I have OCD \ud83d\ude33 I\u2019m an actual psycho \ud83e\udd37\ud83c\udffc\u200d\u2640\ufe0f gives me anxiety when people\u2026",
    "userName": "Andrew Marzocca"
},
{
    "TweetId": "997138152090423296",
    "created_at": "Thu May 17 15:33:56 +0000 2018",
    "geo": "None",
    "text": "RT @mayabp__: Locals: mental health isn\u2019t a joke!\n\nAlso locals: swear I have OCD \ud83d\ude33 I\u2019m an actual psycho \ud83e\udd37\ud83c\udffc\u200d\u2640\ufe0f gives me anxiety when people\u2026",
    "userName": "\u0434\u034c\u033f\u0306\u0308\u0369\u0342\u0358\u0354\u034d\u0354\u0440\u033e\u035b\u0346\u0351\u0349\u032d\u0329\u031f\u0443\u0352\u0307\u030d\u0357\u0301\u0369\u0303\u0318\u0433\u036d\u0343\u0343\u0323\u032e\u0348"
},
{
    "TweetId": "997138149968105473",
    "created_at": "Thu May 17 15:33:55 +0000 2018",
    "geo": "None",
    "text": "How could you not love this country, especially in this weather #Ireland https://t.co/8CHYDxaCl4",
    "userName": "Docko_924 \ud83c\uddee\ud83c\uddea"
},
{
    "TweetId": "997138157178183682",
    "created_at": "Thu May 17 15:33:57 +0000 2018",
    "geo": "None",
    "text": "This is D'Angelo weather \nhttps://t.co/gN49RHBhZl",
    "userName": "\u00dana Hennessy"
},
{
    "TweetId": "997138159979978752",
    "created_at": "Thu May 17 15:33:57 +0000 2018",
    "geo": "None",
    "text": "Slightly regret booking boot camp tonight in this weather, I want to be in a pub garden \ud83c\udf77",
    "userName": "Alice"
},
{
    "TweetId": "997138159388459009",
    "created_at": "Thu May 17 15:33:57 +0000 2018",
    "geo": "None",
    "text": "April showers brings...... more May showers??? Overrrrr this weather \ud83d\ude44\ud83d\ude24",
    "userName": "TheSassQueen"
},
{
    "TweetId": "997138160076382213",
    "created_at": "Thu May 17 15:33:57 +0000 2018",
    "geo": "None",
    "text": "The National Weather Service in Dodge City has issued a * Severe Thunderstorm Warning for... Northeastern Seward https://t.co/DGrlOOZeXp",
    "userName": "WXHAZARDSKS"
},
{
    "TweetId": "997138160541884417",
    "created_at": "Thu May 17 15:33:58 +0000 2018",
    "geo": "None",
    "text": "RT @NHTSAgov: Drivers \u2013 With the weather getting nicer, stay aware of increased bicycle and pedestrian activity, especially in neighborhood\u2026",
    "userName": "CSP Weld"
},
{
    "TweetId": "997138159975755776",
    "created_at": "Thu May 17 15:33:57 +0000 2018",
    "geo": "None",
    "text": "RT @TBLightning: Weather forecast for tonight: Plenty of Lightning in the area. \u26a1\ufe0f\n\n#GoBolts | #StanleyCup https://t.co/kizvqdBRWN",
    "userName": "Colleenscott29@msn.com"
},
{
    "TweetId": "997138160344682496",
    "created_at": "Thu May 17 15:33:58 +0000 2018",
    "geo": "None",
    "text": "ok. https://t.co/Tq9NekGBuB",
    "userName": "Billy Wayne Davis"
},
{
    "TweetId": "997138162412503041",
    "created_at": "Thu May 17 15:33:58 +0000 2018",
    "geo": "None",
    "text": "RT @rrfn: Have you checked out the brand new, mobile-friendly Red River Farm Network website? Get the latest farm news, market analysis and\u2026",
    "userName": "WCAS"
},
{
    "TweetId": "997138167760334848",
    "created_at": "Thu May 17 15:33:59 +0000 2018",
    "geo": "None",
    "text": "@Battlerite Love the different biomes. Will they have weather effects that affect gameplay?\ud83e\udd14",
    "userName": "Jumboe"
},
{
    "TweetId": "997138168469049344",
    "created_at": "Thu May 17 15:33:59 +0000 2018",
    "geo": "None",
    "text": "* Nice day today, huh?\n* Birds are singing, flowers are blooming...\n* Perfect weather for a game of catch.",
    "userName": "Asgore Dreemur"
},
{
    "TweetId": "997138169702297600",
    "created_at": "Thu May 17 15:34:00 +0000 2018",
    "geo": "None",
    "text": "RT @NWS: On Tuesday, the National Weather Service issued the first ever ashfall advisory for Hawaii.\nLearn more here: https://t.co/QX0iZGGt\u2026",
    "userName": "Irene Carmichael - OWM"
},
{
    "TweetId": "997138175784087552",
    "created_at": "Thu May 17 15:34:01 +0000 2018",
    "geo": "None",
    "text": "Weather 4:30 PM 17.2oC 1026.5 mb 2.0 mph S",
    "userName": "TmP"
},
{
    "TweetId": "997138177751121920",
    "created_at": "Thu May 17 15:34:02 +0000 2018",
    "geo": "None",
    "text": "RT @weatherchannel: Yesterday, @ihapp_1 from the @Cubs dropped by the studio and gave us a gameday #weather forecast. Check it out and see\u2026",
    "userName": "Cubs Memes"
},
{
    "TweetId": "997138183748861954",
    "created_at": "Thu May 17 15:34:03 +0000 2018",
    "geo": "None",
    "text": "RT @myaxleos: so cal weather got me wondering if tomorrow bouta be a hot 74 or a cold 74",
    "userName": "becks"
},
{
    "TweetId": "997138193475661824",
    "created_at": "Thu May 17 15:34:05 +0000 2018",
    "geo": "None",
    "text": "RT @SoVeryBritish: \u201cHope you\u2019re enjoying the sunny weather!\u201d\n\nNope, I\u2019m at a desk reading an email from a stranger",
    "userName": "\u0432\u0435\u0441\u0442\u0438 \u0438\u0437 \u043f\u043e\u0433\u0440\u0435\u0431\u0430"
},
{
    "TweetId": "997138189872779269",
    "created_at": "Thu May 17 15:34:05 +0000 2018",
    "geo": "None",
    "text": "RT @1RealMir: I wear jackets no matter the weather, I swear\ud83d\ude02",
    "userName": "Chy \ud83e\udd24\ud83d\udc8d"
},
{
    "TweetId": "997138182574571521",
    "created_at": "Thu May 17 15:34:03 +0000 2018",
    "geo": "None",
    "text": "RT @EmilyKennedyWX: Sunshine and 70s!? Beautiful day to get outside during the lunch hour. \ud83c\udf1e\n\nFor any games or practice this evening, weath\u2026",
    "userName": "Nathan Faulkner"
},
{
    "TweetId": "997138198169116672",
    "created_at": "Thu May 17 15:34:07 +0000 2018",
    "geo": "None",
    "text": "CC @ZachLong_OWH state track! https://t.co/TbYUYz6H2a",
    "userName": "chris machian"
},
{
    "TweetId": "997138200723324928",
    "created_at": "Thu May 17 15:34:07 +0000 2018",
    "geo": "None",
    "text": "Today's weather needs Some EXperience.!!!  I think Miguna is sending some cold waves to us!! Come baby come.",
    "userName": "NDUNGATA NDUNGATA\u00ae"
},
{
    "TweetId": "997138200954064896",
    "created_at": "Thu May 17 15:34:07 +0000 2018",
    "geo": "None",
    "text": "RT @SoVeryBritish: \u201cHope you\u2019re enjoying the sunny weather!\u201d\n\nNope, I\u2019m at a desk reading an email from a stranger",
    "userName": "Iona Birss"
},
{
    "TweetId": "997138202891902977",
    "created_at": "Thu May 17 15:34:08 +0000 2018",
    "geo": "None",
    "text": "RT @NWSOmaha: Severe weather outlook for Saturday, May 19th. Slight risk of severe storms possible during the afternoon and evening. #newx\u2026",
    "userName": "Jessica White"
},
{
    "TweetId": "997138207551696899",
    "created_at": "Thu May 17 15:34:09 +0000 2018",
    "geo": "None",
    "text": "@BethBoush @DrKateMarvel Educate yourself of the difference between weather and climate.  You utter moron.",
    "userName": "Patrick Murphy"
},
{
    "TweetId": "997138209032278016",
    "created_at": "Thu May 17 15:34:09 +0000 2018",
    "geo": "None",
    "text": "RT @mayabp__: Locals: mental health isn\u2019t a joke!\n\nAlso locals: swear I have OCD \ud83d\ude33 I\u2019m an actual psycho \ud83e\udd37\ud83c\udffc\u200d\u2640\ufe0f gives me anxiety when people\u2026",
    "userName": "ang"
},
{
    "TweetId": "997138189872779269",
    "created_at": "Thu May 17 15:34:05 +0000 2018",
    "geo": "None",
    "text": "RT @1RealMir: I wear jackets no matter the weather, I swear\ud83d\ude02",
    "userName": "Chy \ud83e\udd24\ud83d\udc8d"
},
{
    "TweetId": "997138212123496448",
    "created_at": "Thu May 17 15:34:10 +0000 2018",
    "geo": "None",
    "text": "RT @lmPostMalone: warm weather is about to bring out the happiest version of me",
    "userName": "Veronica \u2728"
},
{
    "TweetId": "997138216443662336",
    "created_at": "Thu May 17 15:34:11 +0000 2018",
    "geo": "None",
    "text": "RT @DhaSolutions: Sunny Days Ahead! \u2600\ufe0f\ud83c\udf1e\u2600\ufe0f Stock up on DHA, Britain's Best Spray Tan ready for the weekend. Call Nicola on \ud83d\udcde 07971 684487 or\u2026",
    "userName": "Spray Tan Kits"
},
{
    "TweetId": "997138219144802304",
    "created_at": "Thu May 17 15:34:12 +0000 2018",
    "geo": "None",
    "text": "RT @mayabp__: Locals: mental health isn\u2019t a joke!\n\nAlso locals: swear I have OCD \ud83d\ude33 I\u2019m an actual psycho \ud83e\udd37\ud83c\udffc\u200d\u2640\ufe0f gives me anxiety when people\u2026",
    "userName": "gar"
},
{
    "TweetId": "997138222735032320",
    "created_at": "Thu May 17 15:34:12 +0000 2018",
    "geo": "None",
    "text": "RT @ryanhanrahan: The National Weather Service in Albany has confirmed two more tornadoes. One in Winsted and one on the Barkhamsted Reserv\u2026",
    "userName": "Patrick Velardi"
},
{
    "TweetId": "997138222672154624",
    "created_at": "Thu May 17 15:34:12 +0000 2018",
    "geo": "None",
    "text": "RT @patsyfinn: I introduced this  event back in 1970 the venue then @MacCumhaills it is now the biggest athletics happening on the Donegal\u2026",
    "userName": "Pierce O'Callaghan"
},
{
    "TweetId": "997138224161153024",
    "created_at": "Thu May 17 15:34:13 +0000 2018",
    "geo": "None",
    "text": "RT @mayabp__: Locals: mental health isn\u2019t a joke!\n\nAlso locals: swear I have OCD \ud83d\ude33 I\u2019m an actual psycho \ud83e\udd37\ud83c\udffc\u200d\u2640\ufe0f gives me anxiety when people\u2026",
    "userName": "Lady Summoner Yuna"
},
{
    "TweetId": "997138224412811264",
    "created_at": "Thu May 17 15:34:13 +0000 2018",
    "geo": "None",
    "text": "RT @mayabp__: Locals: mental health isn\u2019t a joke!\n\nAlso locals: swear I have OCD \ud83d\ude33 I\u2019m an actual psycho \ud83e\udd37\ud83c\udffc\u200d\u2640\ufe0f gives me anxiety when people\u2026",
    "userName": "Lisaaa\ud83d\udc9b"
},
{
    "TweetId": "997138224454819840",
    "created_at": "Thu May 17 15:34:13 +0000 2018",
    "geo": "None",
    "text": "RT @mayabp__: Locals: mental health isn\u2019t a joke!\n\nAlso locals: swear I have OCD \ud83d\ude33 I\u2019m an actual psycho \ud83e\udd37\ud83c\udffc\u200d\u2640\ufe0f gives me anxiety when people\u2026",
    "userName": "elena"
},
{
    "TweetId": "997138224517611521",
    "created_at": "Thu May 17 15:34:13 +0000 2018",
    "geo": "None",
    "text": "RT @mayabp__: Locals: mental health isn\u2019t a joke!\n\nAlso locals: swear I have OCD \ud83d\ude33 I\u2019m an actual psycho \ud83e\udd37\ud83c\udffc\u200d\u2640\ufe0f gives me anxiety when people\u2026",
    "userName": "andra \ud83c\udf37"
},
{
    "TweetId": "997138225369092097",
    "created_at": "Thu May 17 15:34:13 +0000 2018",
    "geo": "None",
    "text": "RT @redskinvol55: Tonight\u2019s Region Championship soccer game has been moved to 5:30pm due to impending weather",
    "userName": "Joshua Brannon"
},
{
    "TweetId": "997138227491430401",
    "created_at": "Thu May 17 15:34:14 +0000 2018",
    "geo": "None",
    "text": "just for the record the weather today is slightly sarcastic with a good chance of a. indifference and b. disinterest in what the critics say",
    "userName": "e"
},
{
    "TweetId": "997138229240451072",
    "created_at": "Thu May 17 15:34:14 +0000 2018",
    "geo": "None",
    "text": "RT @TrumpTrainMRA4: The Weather According to @CNN Will Continue\nto be STORMY STORMY STORMY after the\nRUSSIA RUSSIA RUSSIA Blizzard Played O\u2026",
    "userName": "Yardonna"
},
{
    "TweetId": "997138229605347328",
    "created_at": "Thu May 17 15:34:14 +0000 2018",
    "geo": "None",
    "text": "It's exam weather, don't feel left out! Book your course now at the Green Tech Skillnet! @IWEA\u2026 https://t.co/RqPeLK9SpE",
    "userName": "Green Tech Skillnet"
},
{
    "TweetId": "997138231710789632",
    "created_at": "Thu May 17 15:34:15 +0000 2018",
    "geo": "None",
    "text": "New York, NY Weather :: 61F Fog/Mist https://t.co/t2z4vE5iLy",
    "userName": "Weather NYC"
},
{
    "TweetId": "997138233589809153",
    "created_at": "Thu May 17 15:34:15 +0000 2018",
    "geo": "None",
    "text": "Meridian, ID Weather :: 59F Mostly Cloudy https://t.co/tfvLnJi0v2",
    "userName": "Meridian Buzz"
},
{
    "TweetId": "997138234038767616",
    "created_at": "Thu May 17 15:34:15 +0000 2018",
    "geo": "None",
    "text": "RT @TBLightning: Weather forecast for tonight: Plenty of Lightning in the area. \u26a1\ufe0f\n\n#GoBolts | #StanleyCup https://t.co/kizvqdBRWN",
    "userName": "Gabriela Reyes"
},
{
    "TweetId": "997138233933942785",
    "created_at": "Thu May 17 15:34:15 +0000 2018",
    "geo": "None",
    "text": "the weather is very cool",
    "userName": "camila"
},
{
    "TweetId": "997138235854815233",
    "created_at": "Thu May 17 15:34:16 +0000 2018",
    "geo": "None",
    "text": "RT @mayabp__: Locals: mental health isn\u2019t a joke!\n\nAlso locals: swear I have OCD \ud83d\ude33 I\u2019m an actual psycho \ud83e\udd37\ud83c\udffc\u200d\u2640\ufe0f gives me anxiety when people\u2026",
    "userName": "Rach"
},
{
    "TweetId": "997138236538372096",
    "created_at": "Thu May 17 15:34:16 +0000 2018",
    "geo": "None",
    "text": "RT @FlashySillah: Are you doing wudhu bro? https://t.co/hIroy2CKL7",
    "userName": "Utt \ud83c\udf3a"
},
{
    "TweetId": "997138239931781122",
    "created_at": "Thu May 17 15:34:16 +0000 2018",
    "geo": "None",
    "text": "RT @lmPostMalone: warm weather is about to bring out the happiest version of me",
    "userName": "Alley B"
},
{
    "TweetId": "997138240040816640",
    "created_at": "Thu May 17 15:34:17 +0000 2018",
    "geo": "None",
    "text": "RT @jeffwellz: \ud83d\ude2dimagine being able to use your phone while writing a paper and you decide to tweet https://t.co/Ex4CBVIh9M",
    "userName": "Mo"
},
{
    "TweetId": "997138242351783937",
    "created_at": "Thu May 17 15:34:17 +0000 2018",
    "geo": "None",
    "text": "RT @FlashySillah: Are you doing wudhu bro? https://t.co/hIroy2CKL7",
    "userName": "\ud83c\udf6f"
},
{
    "TweetId": "997138242787930112",
    "created_at": "Thu May 17 15:34:17 +0000 2018",
    "geo": "None",
    "text": "RT @quantumpenguin: We also observed a volcanic explosion in addition to the Galactic center tonight!\n\nFrom @GeminiObs cloud cam below http\u2026",
    "userName": "Thomas Connor"
},
{
    "TweetId": "997138243689820160",
    "created_at": "Thu May 17 15:34:17 +0000 2018",
    "geo": "None",
    "text": "RT @droneraceafrica: #TipTuesday did you know that apart from not being allowed to fly at night, as a drone pilot you also need to keep an\u2026",
    "userName": "simon robinson"
},
{
    "TweetId": "997138244427902976",
    "created_at": "Thu May 17 15:34:18 +0000 2018",
    "geo": "None",
    "text": "Geoengineering, Weather Modification, and Weaponizing Nature\nhttps://t.co/ZMl1Zdkq2i",
    "userName": "Lesley's Wide-Angle Perspective"
},
{
    "TweetId": "997138244327362560",
    "created_at": "Thu May 17 15:34:18 +0000 2018",
    "geo": "None",
    "text": "RT @hanielator: I get so annoyedt when people say they have anxiety thinking that it\u2019s cute when they have never had a panic/anxiety attack\u2026",
    "userName": "\u2728Haiven\u2728"
},
{
    "TweetId": "997138245313056768",
    "created_at": "Thu May 17 15:34:18 +0000 2018",
    "geo": "None",
    "text": "RT @SoVeryBritish: \u201cHope you\u2019re enjoying the sunny weather!\u201d\n\nNope, I\u2019m at a desk reading an email from a stranger",
    "userName": "Lucie"
},
{
    "TweetId": "997138249524088837",
    "created_at": "Thu May 17 15:34:19 +0000 2018",
    "geo": "None",
    "text": "RT @antiKomplacent: There gotta be a shower somewhere before that....if not, then he different lmfao https://t.co/NDJMNJmYEQ",
    "userName": "K I N G D U F F Y"
},
{
    "TweetId": "997138250933272576",
    "created_at": "Thu May 17 15:34:19 +0000 2018",
    "geo": "None",
    "text": "RT @myaxleos: so cal weather got me wondering if tomorrow bouta be a hot 74 or a cold 74",
    "userName": "I died tomorrow"
},
{
    "TweetId": "997138255844962304",
    "created_at": "Thu May 17 15:34:20 +0000 2018",
    "geo": "None",
    "text": "anyone: makes a regular harmless joke  idiots who feel empowered: EVERYTHING IS TRIGGERING AND YOURE GONNA MAKE EVE\u2026 https://t.co/1QveESS9Gt",
    "userName": "MVRK"
},
{
    "TweetId": "997138259204624385",
    "created_at": "Thu May 17 15:34:21 +0000 2018",
    "geo": "None",
    "text": "RT @meenamonae: good weather= good mood",
    "userName": "\ud835\udcae."
},
{
    "TweetId": "997138259913277440",
    "created_at": "Thu May 17 15:34:21 +0000 2018",
    "geo": "None",
    "text": "RT @lmPostMalone: warm weather is about to bring out the happiest version of me",
    "userName": "camryn"
},
{
    "TweetId": "997138259309420546",
    "created_at": "Thu May 17 15:34:21 +0000 2018",
    "geo": "None",
    "text": "***UPDATE: Anderson County and the organizers of the Bill and Jo Trent Anderson Regional Airshow announce with regr\u2026 https://t.co/S0PjUnPEir",
    "userName": "Visit Anderson"
},
{
    "TweetId": "997138260731289600",
    "created_at": "Thu May 17 15:34:21 +0000 2018",
    "geo": "None",
    "text": "@bigmommasez He does thank you.  a lot better for him. with this hot weather xx",
    "userName": "David"
},
{
    "TweetId": "997138261876314113",
    "created_at": "Thu May 17 15:34:22 +0000 2018",
    "geo": "None",
    "text": "RT @Word2MyKnicks: This app telling me to DM you, pray that I don't receive the curve. Don't wanna go out like so many fallen brothers http\u2026",
    "userName": "c\u00f8c\u00f8"
},
{
    "TweetId": "997138263335895040",
    "created_at": "Thu May 17 15:34:22 +0000 2018",
    "geo": "None",
    "text": "LOT issues Hazardous Weather Outlook (HWO) at May 17, 10:34 AM CDT https://t.co/yIkACuG2x1",
    "userName": "SchaumburgWX"
},
{
    "TweetId": "997138263331753985",
    "created_at": "Thu May 17 15:34:22 +0000 2018",
    "geo": "None",
    "text": "LOT issues Hazardous Weather Outlook (HWO) at May 17, 10:34 AM CDT https://t.co/jb3HtEbhSr",
    "userName": "IEMBot LOT"
},
{
    "TweetId": "997138263335948289",
    "created_at": "Thu May 17 15:34:22 +0000 2018",
    "geo": "None",
    "text": "LOT issues Hazardous Weather Outlook (HWO) at May 17, 10:34 AM CDT https://t.co/tCfZP0H37b",
    "userName": "NWI Storm Squad"
},
{
    "TweetId": "997138266502582272",
    "created_at": "Thu May 17 15:34:23 +0000 2018",
    "geo": "None",
    "text": "I just had one of my favourites nights of photography ever. Extremely stormy weather, headed to the coast (Songdo)\u2026 https://t.co/vEf2PhY49F",
    "userName": "Steve Roe"
},
{
    "TweetId": "997138266565627904",
    "created_at": "Thu May 17 15:34:23 +0000 2018",
    "geo": "None",
    "text": "The weather is really TRASH! \ud83d\ude44",
    "userName": "Esha \u2728"
},
{
    "TweetId": "997138267278528512",
    "created_at": "Thu May 17 15:34:23 +0000 2018",
    "geo": "None",
    "text": "RT @colepisiak: Me: i could use a na-\n\nGirl who used her parents money to spend an entire week blacked out in Cancun for spring break:  nap\u2026",
    "userName": "nicole\ud83d\udc8c"
},
{
    "TweetId": "997138273851068416",
    "created_at": "Thu May 17 15:34:25 +0000 2018",
    "geo": "None",
    "text": "The weather has finally gotten to me \ud83d\ude22\ud83d\ude22 #Sick\ud83e\udd22",
    "userName": "That Igbo Girl \ud83c\uddf3\ud83c\uddec\ud83d\udc95"
},
{
    "TweetId": "997138274421542913",
    "created_at": "Thu May 17 15:34:25 +0000 2018",
    "geo": "None",
    "text": "New York weather as of 03:34 PM: 61.61 F",
    "userName": "Shikha Purohit"
},
{
    "TweetId": "997138275520385026",
    "created_at": "Thu May 17 15:34:25 +0000 2018",
    "geo": "None",
    "text": "Paris weather as of 03:34 PM: 65.07 F",
    "userName": "Shikha Purohit"
},
{
    "TweetId": "997138276015276032",
    "created_at": "Thu May 17 15:34:25 +0000 2018",
    "geo": "None",
    "text": "RT @mayabp__: Locals: mental health isn\u2019t a joke!\n\nAlso locals: swear I have OCD \ud83d\ude33 I\u2019m an actual psycho \ud83e\udd37\ud83c\udffc\u200d\u2640\ufe0f gives me anxiety when people\u2026",
    "userName": "charmander"
},
{
    "TweetId": "997138276975718400",
    "created_at": "Thu May 17 15:34:25 +0000 2018",
    "geo": "None",
    "text": "RT @BigJoeBastardi: In spite of what you have been told by weaponization of weather AGW pushers LAST 5 SUMMERS IN US VS 10 YEARS ENDING IN\u2026",
    "userName": "Justin Patton"
},
{
    "TweetId": "997138276875165696",
    "created_at": "Thu May 17 15:34:25 +0000 2018",
    "geo": "None",
    "text": "@RobbieBarstool @mainstreetrat Lmao is this today\u2019s weather girl?",
    "userName": "Corcoran"
},
{
    "TweetId": "997138277487362050",
    "created_at": "Thu May 17 15:34:25 +0000 2018",
    "geo": "None",
    "text": "This colab still does the things man! Ngapha the weather is allowing. \n\nhttps://t.co/tVC6uKC4D2",
    "userName": "Takalani Masikhwa"
},
{
    "TweetId": "997138279106514945",
    "created_at": "Thu May 17 15:34:26 +0000 2018",
    "geo": "None",
    "text": "Severe Thunderstorm Warning\nNational Weather Service Dodge City KS\n1027 AM CDT THU MAY 17 2018\n\nThe National Weathe\u2026 https://t.co/dCbfiYw6Au",
    "userName": "Seward County"
},
{
    "TweetId": "997138280830382085",
    "created_at": "Thu May 17 15:34:26 +0000 2018",
    "geo": "None",
    "text": "Honeoye Falls, NY Weather: 05/17/18 11:34 AM:  pressure 1016.8mb",
    "userName": "Thomas Bond"
},
{
    "TweetId": "997138281673449472",
    "created_at": "Thu May 17 15:34:26 +0000 2018",
    "geo": "None",
    "text": "Honeoye Falls, NY Weather: 05/17/18 11:34 AM:  temperature 73f wind speed 1mph wind gust 3mph wind direction WSW humidity 52% dewpoint 55f",
    "userName": "Thomas Bond"
},
{
    "TweetId": "997138281728036866",
    "created_at": "Thu May 17 15:34:26 +0000 2018",
    "geo": "None",
    "text": "and the meanest https://t.co/RtJi4b0A5D",
    "userName": "loquita"
},
{
    "TweetId": "997138283472748544",
    "created_at": "Thu May 17 15:34:27 +0000 2018",
    "geo": "None",
    "text": "RT @ChesCoCommuter: DATE CHANGE: Due to the miserable weather we're expecting on Friday, we are moving our Bike to Work Day ride up to Mond\u2026",
    "userName": "McMahon Associates"
},
{
    "TweetId": "997138284802445316",
    "created_at": "Thu May 17 15:34:27 +0000 2018",
    "geo": "None",
    "text": "Today is #OutdoorClassroomDay! We hope our friends at St Mary\u2019s Cockerton Primary School have been taking advantage\u2026 https://t.co/NwITdK2vdx",
    "userName": "Darlington Cares"
},
{
    "TweetId": "997138288195518464",
    "created_at": "Thu May 17 15:34:28 +0000 2018",
    "geo": "None",
    "text": "RT @myaxleos: so cal weather got me wondering if tomorrow bouta be a hot 74 or a cold 74",
    "userName": "Clarissa Villafan"
},
{
    "TweetId": "997138288707239936",
    "created_at": "Thu May 17 15:34:28 +0000 2018",
    "geo": "None",
    "text": "RT @queensmamii: tHis shit crazy\ud83d\ude2d https://t.co/GqxzuSbtcU",
    "userName": "L\u2019Boogie"
},
{
    "TweetId": "997138289265135617",
    "created_at": "Thu May 17 15:34:28 +0000 2018",
    "geo": "None",
    "text": "RT @thehappypear: Working hard OR hardly working? \ud83d\ude1cGreat day for some outdoor meetings and making the most of this fine weather, on days li\u2026",
    "userName": "Shropshire Vegans\ud83c\udf31"
},
{
    "TweetId": "997138289705607169",
    "created_at": "Thu May 17 15:34:28 +0000 2018",
    "geo": "None",
    "text": "Great weather for a spot of dolphin watching \ud83d\ude09 \u2014 at WDC Speybay https://t.co/j95ulIk9pX",
    "userName": "Paul Longley"
},
{
    "TweetId": "997138292356206594",
    "created_at": "Thu May 17 15:34:29 +0000 2018",
    "geo": "None",
    "text": "RT @mayabp__: Locals: mental health isn\u2019t a joke!\n\nAlso locals: swear I have OCD \ud83d\ude33 I\u2019m an actual psycho \ud83e\udd37\ud83c\udffc\u200d\u2640\ufe0f gives me anxiety when people\u2026",
    "userName": "j.p\u26a1\ufe0f"
},
{
    "TweetId": "997138292469616641",
    "created_at": "Thu May 17 15:34:29 +0000 2018",
    "geo": "None",
    "text": "RT @Melaavee: Love this stormy weather",
    "userName": "Nick"
},
{
    "TweetId": "997138292721135617",
    "created_at": "Thu May 17 15:34:29 +0000 2018",
    "geo": "None",
    "text": "RT @starklcrd: Remember when tom made a weather forecast appearance and blamed the weather on thor https://t.co/8R4L5xGjm3",
    "userName": "\u2615\ufe0f"
},
{
    "TweetId": "997138296550588416",
    "created_at": "Thu May 17 15:34:30 +0000 2018",
    "geo": "None",
    "text": "Yesterday, ihapp_1 from the Cubs dropped by the studio and gave us a gameday #weather forecast. Check it out and se\u2026 https://t.co/tchywuy1a6",
    "userName": "Emerged Notion"
},
{
    "TweetId": "997138303253172226",
    "created_at": "Thu May 17 15:34:32 +0000 2018",
    "geo": "None",
    "text": "The weather is genial\ud83d\udc4c",
    "userName": "Mohammed Saleh"
},
{
    "TweetId": "997138307195678720",
    "created_at": "Thu May 17 15:34:33 +0000 2018",
    "geo": "None",
    "text": "https://t.co/NkYktbtsU6",
    "userName": "Louis. Gacsi"
},
{
    "TweetId": "997138312115687427",
    "created_at": "Thu May 17 15:34:34 +0000 2018",
    "geo": "None",
    "text": "RT @kayafm95dot9: Driving tips for bad weather conditions: Driving in rain may not seem dangerous but the truth is that traffic fatalities\u2026",
    "userName": "R\u00f4\u00ff\u00e5l \u00d0\u00e8\u00e9"
},
{
    "TweetId": "997138316133888000",
    "created_at": "Thu May 17 15:34:35 +0000 2018",
    "geo": "None",
    "text": "RT @mayabp__: Locals: mental health isn\u2019t a joke!\n\nAlso locals: swear I have OCD \ud83d\ude33 I\u2019m an actual psycho \ud83e\udd37\ud83c\udffc\u200d\u2640\ufe0f gives me anxiety when people\u2026",
    "userName": "Marly"
},
{
    "TweetId": "997138317312393217",
    "created_at": "Thu May 17 15:34:35 +0000 2018",
    "geo": "None",
    "text": "RT @patsyfinn: I introduced this  event back in 1970 the venue then @MacCumhaills it is now the biggest athletics happening on the Donegal\u2026",
    "userName": "Tamara Savvy"
},
{
    "TweetId": "997138327638872064",
    "created_at": "Thu May 17 15:34:37 +0000 2018",
    "geo": "None",
    "text": "RT @SoVeryBritish: \u201cHope you\u2019re enjoying the sunny weather!\u201d\n\nNope, I\u2019m at a desk reading an email from a stranger",
    "userName": "Pablo Escobartz"
},
{
    "TweetId": "997138330163834880",
    "created_at": "Thu May 17 15:34:38 +0000 2018",
    "geo": "None",
    "text": "RT @aigkenham: Great to see all the greenery coming back @ArkEncounter after our long winter, &amp; exciting to watch the 2500 seat Answers Cen\u2026",
    "userName": "MatthewTwihard"
},
{
    "TweetId": "997138330537156609",
    "created_at": "Thu May 17 15:34:38 +0000 2018",
    "geo": "None",
    "text": "RT @usa_photo_art_y: photography travel planet earth woods\nhappy beautiful weather wildlife sky geo\nnyc world beauty animals birds cats dog\u2026",
    "userName": "luck Phirl"
},
{
    "TweetId": "997138331313033216",
    "created_at": "Thu May 17 15:34:38 +0000 2018",
    "geo": "None",
    "text": "RT @TBLightning: Weather forecast for tonight: Plenty of Lightning in the area. \u26a1\ufe0f\n\n#GoBolts | #StanleyCup https://t.co/kizvqdBRWN",
    "userName": "Chris Mux"
},
{
    "TweetId": "997138335268139008",
    "created_at": "Thu May 17 15:34:39 +0000 2018",
    "geo": "None",
    "text": "RT @mayabp__: Locals: mental health isn\u2019t a joke!\n\nAlso locals: swear I have OCD \ud83d\ude33 I\u2019m an actual psycho \ud83e\udd37\ud83c\udffc\u200d\u2640\ufe0f gives me anxiety when people\u2026",
    "userName": "Clare Heidinger"
},
{
    "TweetId": "997138335029170176",
    "created_at": "Thu May 17 15:34:39 +0000 2018",
    "geo": "None",
    "text": "RT @TBLightning: Weather forecast for tonight: Plenty of Lightning in the area. \u26a1\ufe0f\n\n#GoBolts | #StanleyCup https://t.co/kizvqdBRWN",
    "userName": "may"
},
{
    "TweetId": "997138335180128257",
    "created_at": "Thu May 17 15:34:39 +0000 2018",
    "geo": "None",
    "text": "RT @SoVeryBritish: \u201cHope you\u2019re enjoying the sunny weather!\u201d\n\nNope, I\u2019m at a desk reading an email from a stranger",
    "userName": "Sophie Mulcahy"
},
{
    "TweetId": "997138336321064960",
    "created_at": "Thu May 17 15:34:39 +0000 2018",
    "geo": "None",
    "text": "RT @UKWeatherLive: WATCH: Unbelievable footage coming out of #Germany after severe weather struck yesterday! #Tornadoes @ReedTimmerAccu @al\u2026",
    "userName": "Deb"
},
{
    "TweetId": "997138338678300672",
    "created_at": "Thu May 17 15:34:40 +0000 2018",
    "geo": "None",
    "text": "RT @eeandg81: MURPHY OFFERED TO PULL THE LEVER FOR RAVEN JUST LIKE BELLAMY DID FOR CLARKE IN MOUNT WEATHER JESUS SAVE ME I AM NEVER GOING T\u2026",
    "userName": "Jess"
},
{
    "TweetId": "997138339554889729",
    "created_at": "Thu May 17 15:34:40 +0000 2018",
    "geo": "None",
    "text": "RT @LessRowdyTwin: Wow! Ugandan weather goes from J. Cole to Hillsong real fast! \ud83d\ude05\ud83d\ude05\n\nIt's me am Ugandan weather \n\n\ud83d\ude43\ud83d\ude43\ud83d\ude43",
    "userName": "rebecca beckie"
},
{
    "TweetId": "997138341509218305",
    "created_at": "Thu May 17 15:34:41 +0000 2018",
    "geo": "None",
    "text": "RT @PJiminGalaxy: imagine having that amount of power to control weather only jimin can relate\n\n#IVoteBTSBBMAs @BTS_twt https://t.co/Wizc0w\u2026",
    "userName": "Lira Elmira Sari"
},
{
    "TweetId": "997138343094816769",
    "created_at": "Thu May 17 15:34:41 +0000 2018",
    "geo": "None",
    "text": "RT @__sargee: One don said he had shampoo in his eyes loooooooooooooooool \ud83d\ude2b https://t.co/qkokoORTqB",
    "userName": "maeiz"
},
{
    "TweetId": "997138343388475393",
    "created_at": "Thu May 17 15:34:41 +0000 2018",
    "geo": "None",
    "text": "RT @mayabp__: Locals: mental health isn\u2019t a joke!\n\nAlso locals: swear I have OCD \ud83d\ude33 I\u2019m an actual psycho \ud83e\udd37\ud83c\udffc\u200d\u2640\ufe0f gives me anxiety when people\u2026",
    "userName": "Kayla\ud83d\udda4\ud83e\udd18\ud83c\udffc"
},
{
    "TweetId": "997138345347055616",
    "created_at": "Thu May 17 15:34:42 +0000 2018",
    "geo": "None",
    "text": "RT @FlashySillah: Are you doing wudhu bro? https://t.co/hIroy2CKL7",
    "userName": "ezz"
},
{
    "TweetId": "997138346072723457",
    "created_at": "Thu May 17 15:34:42 +0000 2018",
    "geo": "None",
    "text": "RT @FlashySillah: Are you doing wudhu bro? https://t.co/hIroy2CKL7",
    "userName": "El"
},
{
    "TweetId": "997138348161417221",
    "created_at": "Thu May 17 15:34:42 +0000 2018",
    "geo": "None",
    "text": "RT @theseoulstory: \ud83d\udcf8 Enjoying the beautiful weather is NU'EST W's powerful vocal Baekho! \n\nHere are some HD photos of him taken by Dispatch\u2026",
    "userName": "\u0e2e\u0e27\u0e31\u0e07\u0e40\u0e1f\u0e34\u0e2a\u0e17\u0e4c\ud83d\udc31"
},
{
    "TweetId": "997138350233604096",
    "created_at": "Thu May 17 15:34:43 +0000 2018",
    "geo": "None",
    "text": "RT @TBLightning: Weather forecast for tonight: Plenty of Lightning in the area. \u26a1\ufe0f\n\n#GoBolts | #StanleyCup https://t.co/kizvqdBRWN",
    "userName": "\ud83d\udc95Poodles\ud83d\udc29Rule"
},
{
    "TweetId": "997138352032960512",
    "created_at": "Thu May 17 15:34:43 +0000 2018",
    "geo": "None",
    "text": "Ground stop this morning at Philadelphia #PHL due to weather. \nContact your airline for flight status. #sgf\u2026 https://t.co/fIn9ThkHzS",
    "userName": "SGF Airport"
},
{
    "TweetId": "997138352053866496",
    "created_at": "Thu May 17 15:34:43 +0000 2018",
    "geo": "None",
    "text": "RT @ELgh_: #YaaWor weather for Accra",
    "userName": "lele"
},
{
    "TweetId": "997138353597374466",
    "created_at": "Thu May 17 15:34:44 +0000 2018",
    "geo": "None",
    "text": "No matter the weather this #longweekend, the forecast is always sunny in @PlanetFitnessCA\u2019s Judgement Free Zone! Wh\u2026 https://t.co/BjSvaMNDHn",
    "userName": "ruckus"
},
{
    "TweetId": "997138355488985089",
    "created_at": "Thu May 17 15:34:44 +0000 2018",
    "geo": "None",
    "text": "@micah_fleming If the weather cooperates I think we will and knowing me I\u2019ll just get a second shoot done when I\u2019m bigger\ud83d\ude02",
    "userName": "Paige Mueller"
},
{
    "TweetId": "997138356323708928",
    "created_at": "Thu May 17 15:34:44 +0000 2018",
    "geo": "None",
    "text": "This weather fxcked up my flight arrangements for this wkend \ud83d\udca2",
    "userName": "i am Manic"
},
{
    "TweetId": "997138357351313411",
    "created_at": "Thu May 17 15:34:44 +0000 2018",
    "geo": "None",
    "text": "Enjoy this lovely weather then join me &amp; @soniasodha for the @SkyNews paper review tonight at 22:30/23:30. Catch ya then.",
    "userName": "Michael Heaver"
},
{
    "TweetId": "997138357158375424",
    "created_at": "Thu May 17 15:34:44 +0000 2018",
    "geo": "None",
    "text": "@mikercarpenter Agreed. Weather the courts/Mueller/DOJ find it criminal is not the main point, Jr. and his gang act\u2026 https://t.co/kblTf3Z5pI",
    "userName": "Z's Mom"
},
{
    "TweetId": "997138360744411137",
    "created_at": "Thu May 17 15:34:45 +0000 2018",
    "geo": "None",
    "text": "RT @mayabp__: Locals: mental health isn\u2019t a joke!\n\nAlso locals: swear I have OCD \ud83d\ude33 I\u2019m an actual psycho \ud83e\udd37\ud83c\udffc\u200d\u2640\ufe0f gives me anxiety when people\u2026",
    "userName": "\ud83e\udd40\u203c\ufe0f"
},
{
    "TweetId": "997138364104134662",
    "created_at": "Thu May 17 15:34:46 +0000 2018",
    "geo": "None",
    "text": "RT @mayabp__: Locals: mental health isn\u2019t a joke!\n\nAlso locals: swear I have OCD \ud83d\ude33 I\u2019m an actual psycho \ud83e\udd37\ud83c\udffc\u200d\u2640\ufe0f gives me anxiety when people\u2026",
    "userName": "Josh Harrison"
},
{
    "TweetId": "997138365223911425",
    "created_at": "Thu May 17 15:34:46 +0000 2018",
    "geo": "{'type': 'Point', 'coordinates': [-21.54, -54.82]}",
    "text": "current weather in Campo Grande: clear sky, 27\u00b0C\n75% humidity, wind 4kmh, pressure 990mb",
    "userName": "Campo Grande Weather"
},
{
    "TweetId": "997138374040457216",
    "created_at": "Thu May 17 15:34:48 +0000 2018",
    "geo": "None",
    "text": "It appears we are having perfect weather for the ducks! \u2614\ud83e\udd86",
    "userName": "Robson Dentistry"
},
{
    "TweetId": "997138380243853313",
    "created_at": "Thu May 17 15:34:50 +0000 2018",
    "geo": "None",
    "text": "RT @mayabp__: Locals: mental health isn\u2019t a joke!\n\nAlso locals: swear I have OCD \ud83d\ude33 I\u2019m an actual psycho \ud83e\udd37\ud83c\udffc\u200d\u2640\ufe0f gives me anxiety when people\u2026",
    "userName": "\ud83d\udc51\ud83c\udf1a"
},
{
    "TweetId": "997138383964069889",
    "created_at": "Thu May 17 15:34:51 +0000 2018",
    "geo": "None",
    "text": "I miss the cold weather \ud83d\ude14",
    "userName": "Christina"
},
{
    "TweetId": "997138386724052993",
    "created_at": "Thu May 17 15:34:51 +0000 2018",
    "geo": "None",
    "text": "RT @manny_ottawa: \u201cIndigenous Canadians in the North\u201d\n\u201cWomen\u201d\n\u201cPoor\u201d\n\u201cChildren\u201d\n\nThese are all the groups of people that are FIRST to be af\u2026",
    "userName": "Marvelanne \ud83d\udc36\ud83d\udc3a\ud83d\udc31\ud83d\udc0e"
},
{
    "TweetId": "997138386497495040",
    "created_at": "Thu May 17 15:34:51 +0000 2018",
    "geo": "None",
    "text": "RT @patsyfinn: I introduced this  event back in 1970 the venue then @MacCumhaills it is now the biggest athletics happening on the Donegal\u2026",
    "userName": "Richard O'Driscoll"
},
{
    "TweetId": "997138382479413248",
    "created_at": "Thu May 17 15:34:50 +0000 2018",
    "geo": "None",
    "text": "Today's Weather Forecast https://t.co/wlGk8nPNDK",
    "userName": "GBC Television"
},
{
    "TweetId": "997138392314990593",
    "created_at": "Thu May 17 15:34:53 +0000 2018",
    "geo": "None",
    "text": "RT @mayabp__: Locals: mental health isn\u2019t a joke!\n\nAlso locals: swear I have OCD \ud83d\ude33 I\u2019m an actual psycho \ud83e\udd37\ud83c\udffc\u200d\u2640\ufe0f gives me anxiety when people\u2026",
    "userName": "\ud835\udd75\ud835\udd8a\ud835\udd98\ud835\udd98\ud835\udd8e\ud835\udd88\ud835\udd86\ud83d\udc97"
},
{
    "TweetId": "997138396698071040",
    "created_at": "Thu May 17 15:34:54 +0000 2018",
    "geo": "None",
    "text": "Best part about warm weather is that I\u2019m not obligated to wear pants to work. #DressToImpress #butreallytostaycool",
    "userName": "lacy wise"
},
{
    "TweetId": "997138397901787136",
    "created_at": "Thu May 17 15:34:54 +0000 2018",
    "geo": "None",
    "text": "RT @mayabp__: Locals: mental health isn\u2019t a joke!\n\nAlso locals: swear I have OCD \ud83d\ude33 I\u2019m an actual psycho \ud83e\udd37\ud83c\udffc\u200d\u2640\ufe0f gives me anxiety when people\u2026",
    "userName": "riley curry"
},
{
    "TweetId": "997138398245736449",
    "created_at": "Thu May 17 15:34:54 +0000 2018",
    "geo": "None",
    "text": "RT @jeffwellz: \ud83d\ude2dimagine being able to use your phone while writing a paper and you decide to tweet https://t.co/Ex4CBVIh9M",
    "userName": "Pana"
},
{
    "TweetId": "997138399319425026",
    "created_at": "Thu May 17 15:34:54 +0000 2018",
    "geo": "None",
    "text": "@cidersearcher We've done everything we can @cidersearcher. Even if the weather isn't perfect, our festival crowd k\u2026 https://t.co/QTfBATIzrG",
    "userName": "WelshCiderFest"
},
{
    "TweetId": "997138401185890304",
    "created_at": "Thu May 17 15:34:55 +0000 2018",
    "geo": "None",
    "text": "RT @WGNNews: Warm, mostly sunny weather continues https://t.co/bv7ESG6PHz https://t.co/HYme5YV92x",
    "userName": "his.QueenBee"
},
{
    "TweetId": "997138403467677696",
    "created_at": "Thu May 17 15:34:55 +0000 2018",
    "geo": "None",
    "text": "NI needs more of this sunny weather. Badly. https://t.co/rEJnmE1Zrf",
    "userName": "G"
},
{
    "TweetId": "997138405673918464",
    "created_at": "Thu May 17 15:34:56 +0000 2018",
    "geo": "None",
    "text": "RT @1RealMir: I wear jackets no matter the weather, I swear\ud83d\ude02",
    "userName": "N3idA \ud83c\uddf2\ud83c\uddfd\u2022\ud83c\uddfa\ud83c\uddf8"
},
{
    "TweetId": "997138408114880513",
    "created_at": "Thu May 17 15:34:57 +0000 2018",
    "geo": "None",
    "text": "RT @NickVanDelPI: The big question is what will happen if weather prevents @PrinceGeorgeVa from playing at Matoaca Softball on Thursday - w\u2026",
    "userName": "Maddy Quesenberry"
},
{
    "TweetId": "997138410002403328",
    "created_at": "Thu May 17 15:34:57 +0000 2018",
    "geo": "None",
    "text": "Since y\u2019all wanna keep blaming the weather for y\u2019alls attitude, so will I when I slap the shit outta you \ud83d\ude0a",
    "userName": "kanye\ud83e\udd5c"
},
{
    "TweetId": "997138410690269184",
    "created_at": "Thu May 17 15:34:57 +0000 2018",
    "geo": "None",
    "text": "RT @mayabp__: Locals: mental health isn\u2019t a joke!\n\nAlso locals: swear I have OCD \ud83d\ude33 I\u2019m an actual psycho \ud83e\udd37\ud83c\udffc\u200d\u2640\ufe0f gives me anxiety when people\u2026",
    "userName": "Jessica Hodges"
},
{
    "TweetId": "997138413294731265",
    "created_at": "Thu May 17 15:34:58 +0000 2018",
    "geo": "None",
    "text": "@dreamweaver3167 Sounds a lot like Toronto weather! Probably something about being situated next to a GREAT Lake. (\u2026 https://t.co/LY7RXhcHcp",
    "userName": "Judy Gombita"
},
{
    "TweetId": "997153609610559493",
    "created_at": "Thu May 17 16:35:21 +0000 2018",
    "geo": "None",
    "text": "RT @AuburnSoccA: Due to weather and field conditions, the Soccer Complex will be closed today (Wednesday, 5/16). All games have been postpo\u2026",
    "userName": "April Granade"
},
{
    "TweetId": "997153612366311424",
    "created_at": "Thu May 17 16:35:22 +0000 2018",
    "geo": "None",
    "text": "cuddle weather and I\u2019m laid up with gianna \ud83d\ude11",
    "userName": "mak \u264c\ufe0f"
},
{
    "TweetId": "997153614283137024",
    "created_at": "Thu May 17 16:35:22 +0000 2018",
    "geo": "None",
    "text": "Weather for two: in pictures https://t.co/pIp3hapac9",
    "userName": "Sheni Coker"
},
{
    "TweetId": "997153611590373383",
    "created_at": "Thu May 17 16:35:21 +0000 2018",
    "geo": "None",
    "text": "This weather makes me miss Cali \ud83d\ude29 https://t.co/mA2XwCiedr",
    "userName": "Em\u2661"
},
{
    "TweetId": "997153616057249792",
    "created_at": "Thu May 17 16:35:22 +0000 2018",
    "geo": "None",
    "text": "RT @1RealMir: I wear jackets no matter the weather, I swear\ud83d\ude02",
    "userName": "\ud83c\udff3\ufe0f\u200d\ud83c\udf08Larri\ud83c\udff3\ufe0f\u200d\ud83c\udf08"
},
